Division,WeightClassKg,Place,Name,Team,BodyweightKg,Best3SquatKg,Best3BenchKg,Best3DeadliftKg,TotalKg,Equipment,Event,Sex
Boys,51.71,1,Isaiah Quiroz,Colorado City Colorado,51.21,61.23,29.48,68.04,158.76,Single-ply,SBD,M
Boys,55.79,1,Jetly Hobdey,Roscoe Collegiate,55.07,97.52,61.23,113.4,272.16,Single-ply,SBD,M
Boys,55.79,2,Jose de Leon #2,Sterling City,52.44,86.18,52.16,113.4,251.74,Single-ply,SBD,M
Boys,55.79,DQ,Damion Wilborn,Ballinger,55.43,97.52,,97.52,,Single-ply,SBD,M
Boys,59.87,1,Callum Hurst,Coahoma,59.78,174.63,104.33,176.9,455.86,Single-ply,SBD,M
Boys,59.87,2,Zach Fuentes,Coahoma,59.87,151.95,99.79,167.83,419.57,Single-ply,SBD,M
Boys,59.87,3,Isaiah Jennings,Colorado City Colorado,59.74,136.08,79.38,131.54,347,Single-ply,SBD,M
Boys,59.87,4,Joe Manning,Coahoma,57.06,108.86,52.16,115.67,276.69,Single-ply,SBD,M
Boys,59.87,5,Daniel Pugh,Sterling City,59.87,104.33,56.7,113.4,274.42,Single-ply,SBD,M
Boys,67.13,1,Andrew Martinez,Coahoma,66.59,188.24,113.4,192.78,494.42,Single-ply,SBD,M
Boys,67.13,2,Johnathan Rankin,Colorado City Colorado,66.86,165.56,99.79,181.44,446.79,Single-ply,SBD,M
Boys,67.13,3,Zach Holmes,Coahoma,63.78,147.42,106.59,161.03,415.04,Single-ply,SBD,M
Boys,67.13,4,Jose Rodriguez #7,Sterling City,64.32,136.08,81.65,170.1,387.82,Single-ply,SBD,M
Boys,67.13,5,Tait Fullwood,Roscoe Collegiate,62.96,136.08,79.38,147.42,362.87,Single-ply,SBD,M
Boys,67.13,6,Eli Garza,Hermleigh,63.96,122.47,74.84,151.95,349.27,Single-ply,SBD,M
Boys,67.13,7,Adam Brito,Coahoma,63.32,108.86,79.38,136.08,324.32,Single-ply,SBD,M
Boys,67.13,8,Austin Darden,Forsan,66.41,111.13,79.38,133.81,324.32,Single-ply,SBD,M
Boys,67.13,9,Raul Almazan,Garden City,65.41,108.86,72.57,136.08,317.51,Single-ply,SBD,M
Boys,67.13,10,Colton Messick,Hermleigh,67.13,124.74,65.77,127.01,317.51,Single-ply,SBD,M
Boys,67.13,11,Cameron Clement,Hermleigh,62.69,122.47,65.77,102.06,290.3,Single-ply,SBD,M
Boys,67.13,12,Luis Gonzales,Hermleigh,65.14,95.25,54.43,104.33,254.01,Single-ply,SBD,M
Boys,67.13,13,Ashton Belk,Ballinger,65.5,92.99,52.16,104.33,249.48,Single-ply,SBD,M
Boys,74.84,1,Matthew Ramirez,Roby,74.84,195.04,136.08,197.31,528.44,Single-ply,SBD,M
Boys,74.84,2,Brock Vasquez,Hermleigh,68.58,170.1,92.99,204.12,467.2,Single-ply,SBD,M
Boys,74.84,3,Adrian Pena,Ballinger,74.21,161.03,106.59,181.44,449.06,Single-ply,SBD,M
Boys,74.84,4,Jake Everett,Sterling City,72.03,161.03,99.79,163.29,424.11,Single-ply,SBD,M
Boys,74.84,5,Jared Everett,Sterling City,73.57,158.76,83.91,170.1,412.77,Single-ply,SBD,M
Boys,74.84,6,Zach Luera,Colorado City Colorado,72.57,149.69,102.06,158.76,410.5,Single-ply,SBD,M
Boys,74.84,7,Colt Mallory,Hermleigh,73.21,142.88,68.04,167.83,378.75,Single-ply,SBD,M
Boys,74.84,8,Ragan Lowery,Garden City,73.3,136.08,86.18,142.88,365.14,Single-ply,SBD,M
Boys,74.84,9,Jordan Lawson,Colorado City Colorado,68.49,136.08,74.84,136.08,347,Single-ply,SBD,M
Boys,74.84,10,Levi Garland,Roby,74.21,124.74,56.7,149.69,331.12,Single-ply,SBD,M
Boys,74.84,11,Moseis Leanos,Colorado City Colorado,69.4,117.93,74.84,129.27,322.05,Single-ply,SBD,M
Boys,74.84,12,Tucker Barton,Hermleigh,69.85,120.2,65.77,136.08,322.05,Single-ply,SBD,M
Boys,74.84,13,Michael Gonzales,Sterling City,70.03,113.4,58.97,138.35,310.71,Single-ply,SBD,M
Boys,82.1,1,Ashton Voight,Forsan,82.1,174.63,113.4,172.37,460.4,Single-ply,SBD,M
Boys,82.1,2,Marcus Gutierrez,Colorado City Colorado,79.38,151.95,90.72,163.29,405.97,Single-ply,SBD,M
Boys,82.1,3,Austin Lara,Roscoe Collegiate,81.83,142.88,79.38,115.67,337.93,Single-ply,SBD,M
Boys,82.1,4,Caleb Ornales,Ballinger,79.11,122.47,70.31,120.2,312.98,Single-ply,SBD,M
Boys,82.1,5,Bryan Fernandez,Garden City,81.83,127.01,65.77,120.2,312.98,Single-ply,SBD,M
Boys,89.81,1,Hugo Almazan,Garden City,87.18,188.24,127.01,215.46,530.7,Single-ply,SBD,M
Boys,89.81,2,Jacob Guzman,Hermleigh,86,183.7,124.74,204.12,512.56,Single-ply,SBD,M
Boys,89.81,3,Jesse Cervantes,Forsan,89.81,158.76,88.45,190.51,437.72,Single-ply,SBD,M
Boys,89.81,4,Lane Schafer,Forsan,88.99,163.29,83.91,188.24,435.45,Single-ply,SBD,M
Boys,89.81,5,Hunter Wheeler,Ballinger,84.73,158.76,86.18,149.69,394.63,Single-ply,SBD,M
Boys,89.81,6,Brandon Lancaster,Ballinger,89.27,156.49,83.91,149.69,390.09,Single-ply,SBD,M
Boys,89.81,7,Brent Glasco,Forsan,83.01,147.42,79.38,158.76,385.55,Single-ply,SBD,M
Boys,99.79,1,Jessy Villagomez,Roby,99.43,195.04,97.52,195.04,487.61,Single-ply,SBD,M
Boys,99.79,2,Josh Salazar,Colorado City Colorado,94.35,158.76,122.47,145.15,426.38,Single-ply,SBD,M
Boys,99.79,3,Omar Carillo,Colorado City Colorado,97.52,156.49,79.38,145.15,381.02,Single-ply,SBD,M
Boys,99.79,4,Zach Burnett,Garden City,93.71,136.08,99.79,142.88,378.75,Single-ply,SBD,M
Boys,99.79,5,Adolf Medina,Ballinger,96.34,138.35,83.91,142.88,365.14,Single-ply,SBD,M
Boys,99.79,6,John Harty,Hermleigh,94.89,97.52,54.43,106.59,258.55,Single-ply,SBD,M
Boys,109.77,1,Jesse Cuellar,Coahoma,109.41,240.4,147.42,206.38,594.21,Single-ply,SBD,M
Boys,109.77,2,Caleb Smith,Roby,107.41,204.12,115.67,204.12,523.9,Single-ply,SBD,M
Boys,109.77,3,Matt Buckley,Roscoe Collegiate,107.95,197.31,122.47,179.17,498.95,Single-ply,SBD,M
Boys,109.77,4,Caden Williams,Forsan,107.86,158.76,97.52,163.29,419.57,Single-ply,SBD,M
Boys,109.77,5,Jack Johnson,Colorado City Colorado,104.87,147.42,88.45,181.44,417.3,Single-ply,SBD,M
Boys,109.77,6,Matt Barnett,Midland Classical Academy,104.05,131.54,83.91,149.69,365.14,Single-ply,SBD,M
Boys,109.77,7,Tracker Dugan,Hermleigh,102.06,97.52,63.5,124.74,285.76,Single-ply,SBD,M
Boys,124.74,1,Jace King,Ballinger,124.01,226.8,124.74,199.58,551.11,Single-ply,SBD,M
Boys,124.74,2,Jonas Turnbough,Coahoma,113.13,201.85,111.13,188.24,501.22,Single-ply,SBD,M
Boys,124.74,3,Divad Briones,Ballinger,110.86,145.15,127.01,170.1,442.25,Single-ply,SBD,M
Boys,124.74,4,David Ornelas,Colorado City Colorado,111.13,167.83,111.13,151.95,430.91,Single-ply,SBD,M
Boys,124.74,5,Javier Ventura,Colorado City Colorado,112.13,156.49,113.4,158.76,428.64,Single-ply,SBD,M
Boys,124.74,6,John Garcia,Hermleigh,115.3,170.1,95.25,142.88,408.23,Single-ply,SBD,M
Boys,124.74,7,Eutimio Ortega,Forsan,113.13,147.42,86.18,158.76,392.36,Single-ply,SBD,M
Boys,124.74,8,Josh Dira,Midland Classical Academy,115.3,131.54,70.31,154.22,356.07,Single-ply,SBD,M
Boys,124.74+,1,Brycson Pineda,Forsan,130.45,210.92,124.74,208.65,544.31,Single-ply,SBD,M
Boys,124.74+,2,Ted Rich,Colorado City Colorado,128.37,170.1,92.99,151.95,415.04,Single-ply,SBD,M
Boys,,NS,Jaden Hostetter,Ballinger,,,,,,Single-ply,SBD,M
Boys,,NS,Steven Davis,Forsan,,,,,,Single-ply,SBD,M
Boys,,NS,Trae Jost,Garden City,,,,,,Single-ply,SBD,M
Boys,,NS,Jonathon Castillo,Roscoe Collegiate,,,,,,Single-ply,SBD,M
Boys,,NS,Austin Willman,Roscoe Collegiate,,,,,,Single-ply,SBD,M
Boys,,NS,Mason Shipp,Roby,,,,,,Single-ply,SBD,M
Boys,,NS,Orlando Aguero,Sterling City,,,,,,Single-ply,SBD,M
Boys,,NS,Skylar Dreshman,Sterling City,,,,,,Single-ply,SBD,M
