Division,WeightClassKg,Place,Name,Team,BodyweightKg,Best3SquatKg,Best3BenchKg,Best3DeadliftKg,TotalKg,Equipment,Event,Sex
Boys,51.71,1,Bryce Leatherwood,Dublin,47.63,86.18,52.16,95.25,233.6,Single-ply,SBD,M
Boys,55.79,1,Jared Rocha,Waco Reicher Catholic,53.61,95.25,63.5,127.01,285.76,Single-ply,SBD,M
Boys,55.79,2,Julian Talavera,Glen Rose,55.43,90.72,56.7,111.13,258.55,Single-ply,SBD,M
Boys,55.79,3,Carlos Moreno #2,Lingleville,53.16,92.99,47.63,108.86,249.48,Single-ply,SBD,M
Boys,55.79,4,Leo Amaro,San Saba,55.7,83.91,58.97,90.72,233.6,Single-ply,SBD,M
Boys,55.79,DQ,Glenn Gent,Glen Rose,54.79,106.59,,133.81,,Single-ply,SBD,M
Boys,59.87,1,Dillon Graves,Glen Rose,59.6,138.35,90.72,174.63,403.7,Single-ply,SBD,M
Boys,59.87,2,Isaiah Nix,Dublin,59.06,124.74,74.84,145.15,344.73,Single-ply,SBD,M
Boys,59.87,3,Stephen Fritz,Lingleville,59.06,131.54,65.77,142.88,340.19,Single-ply,SBD,M
Boys,59.87,4,Quincy Larson,Hamilton,58.51,106.59,65.77,147.42,319.78,Single-ply,SBD,M
Boys,59.87,DQ,Christian Perez,Dublin,59.51,104.33,,122.47,,Single-ply,SBD,M
Boys,67.13,1,Max Lauderdale,Glen Rose,66.77,142.88,92.99,170.1,405.97,Single-ply,SBD,M
Boys,67.13,2,Manuel DeLeon,Dublin,66.59,149.69,83.91,161.03,394.63,Single-ply,SBD,M
Boys,67.13,3,Aaron Seery,Alvarado,66.41,140.61,97.52,154.22,392.36,Single-ply,SBD,M
Boys,67.13,4,Franklin Lopez,Millsap,63.05,149.69,74.84,154.22,378.75,Single-ply,SBD,M
Boys,67.13,5,Esteban Rodriguez,Dublin,64.41,138.35,74.84,142.88,356.07,Single-ply,SBD,M
Boys,67.13,6,Raymond Pacheco,Millsap,63.05,136.08,63.5,145.15,344.73,Single-ply,SBD,M
Boys,67.13,7,Nick Salyer,Tolar,65.59,120.2,83.91,136.08,340.19,Single-ply,SBD,M
Boys,67.13,8,Jacob Merrill,Glen Rose,67.04,124.74,79.38,136.08,340.19,Single-ply,SBD,M
Boys,67.13,9,Christian Moseley,Glen Rose,67.13,120.2,68.04,136.08,324.32,Single-ply,SBD,M
Boys,67.13,10,Ricardo Alvarez,Alvarado,64.68,124.74,70.31,117.93,312.98,Single-ply,SBD,M
Boys,67.13,11,Braylen Meader,Glen Rose,65.41,111.13,70.31,127.01,308.44,Single-ply,SBD,M
Boys,67.13,12,Jace Davis,Millsap,65.68,102.06,61.23,124.74,288.03,Single-ply,SBD,M
Boys,67.13,13,Brice Tonkin,Waco Reicher Catholic,67.13,83.91,61.23,113.4,258.55,Single-ply,SBD,M
Boys,67.13,14,Mauricio Rodriguez #3,San Saba,66.59,61.23,49.9,95.25,206.38,Single-ply,SBD,M
Boys,67.13,DQ,Casey Stevenson,Rio Vista,61.42,,92.99,179.17,,Single-ply,SBD,M
Boys,74.84,1,Chris Williams #2,Rio Vista,72.39,183.7,92.99,192.78,469.47,Single-ply,SBD,M
Boys,74.84,2,Skylar Collier,Brock,71.58,188.24,88.45,190.51,467.2,Single-ply,SBD,M
Boys,74.84,3,Chase Keilers,Early,74.39,165.56,92.99,176.9,435.45,Single-ply,SBD,M
Boys,74.84,4,Bailey Jones #1,Early,74.75,151.95,99.79,167.83,419.57,Single-ply,SBD,M
Boys,74.84,5,Hunter Bramblett,Brock,71.94,147.42,97.52,151.95,396.89,Single-ply,SBD,M
Boys,74.84,6,Blake Petit,Hamilton,71.21,151.95,83.91,158.76,394.63,Single-ply,SBD,M
Boys,74.84,7,Kobe Trought,Brock,74.75,142.88,83.91,151.95,378.75,Single-ply,SBD,M
Boys,74.84,8,Peyton Alvey,Alvarado,74.48,147.42,92.99,127.01,367.41,Single-ply,SBD,M
Boys,74.84,9,Brock Barron,Millsap,69.94,129.27,72.57,147.42,349.27,Single-ply,SBD,M
Boys,74.84,10,Angel Escobar,Dublin,74.75,131.54,74.84,129.27,335.66,Single-ply,SBD,M
Boys,74.84,11,Erik Argote,San Saba,68.22,111.13,81.65,127.01,319.78,Single-ply,SBD,M
Boys,74.84,12,Andy Montoya,San Saba,69.49,102.06,72.57,138.35,312.98,Single-ply,SBD,M
Boys,74.84,13,Austin Thompson,Alvarado,73.48,108.86,79.38,120.2,308.44,Single-ply,SBD,M
Boys,74.84,14,Jose Zavala,Glen Rose,72.48,102.06,68.04,129.27,299.37,Single-ply,SBD,M
Boys,74.84,15,Sakima Herrera,San Saba,68.22,97.52,70.31,106.59,274.42,Single-ply,SBD,M
Boys,74.84,16,Chance Kohr,Lingleville,74.3,70.31,45.36,92.99,208.65,Single-ply,SBD,M
Boys,74.84,DQ,Stuart Cortez,Hamilton,73.48,142.88,,142.88,,Single-ply,SBD,M
Boys,74.84,DQ,Trevor Herron,Brock,74.66,,79.38,104.33,,Single-ply,SBD,M
Boys,74.84,DQ,Austin Rosales,Coleman,74.84,,102.06,170.1,,Single-ply,SBD,M
Boys,74.84,DQ,Cannon Adams,Tolar,67.49,111.13,,120.2,,Single-ply,SBD,M
Boys,74.84,DQ,Cason Bridges,Rio Vista,69.67,,,165.56,,Single-ply,SBD,M
Boys,82.1,1,Nacho Rios,Comanche,76.02,204.12,122.47,192.78,519.36,Single-ply,SBD,M
Boys,82.1,2,Logan Thomas,Early,78.93,170.1,127.01,181.44,478.54,Single-ply,SBD,M
Boys,82.1,3,Jacob Winters,Lingleville,78.93,185.97,102.06,188.24,476.27,Single-ply,SBD,M
Boys,82.1,4,Martin Najera,Hamilton,77.47,181.44,97.52,181.44,460.4,Single-ply,SBD,M
Boys,82.1,5,Johnny Jurado,Dublin,80.65,151.95,88.45,165.56,405.97,Single-ply,SBD,M
Boys,82.1,6,Dylan Roudebush,Alvarado,79.2,151.95,102.06,149.69,403.7,Single-ply,SBD,M
Boys,82.1,7,Cristian Vazquez,Dublin,82.1,154.22,92.99,136.08,383.29,Single-ply,SBD,M
Boys,82.1,8,Rickey Bottorff,Millsap,81.47,145.15,97.52,133.81,376.48,Single-ply,SBD,M
Boys,82.1,9,James Young #3,Hamilton,75.66,136.08,88.45,142.88,367.41,Single-ply,SBD,M
Boys,82.1,10,Ryan Perez,Waco Reicher Catholic,82.01,140.61,70.31,113.4,324.32,Single-ply,SBD,M
Boys,82.1,11,Danny Rowe,Alvarado,75.66,115.67,95.25,111.13,322.05,Single-ply,SBD,M
Boys,82.1,12,Cutter Daniels,San Saba,77.29,113.4,68.04,124.74,306.17,Single-ply,SBD,M
Boys,82.1,DQ,Ricky Douglas,Glen Rose,77.11,117.93,,124.74,,Single-ply,SBD,M
Boys,82.1,DQ,Gage Schade,Millsap,76.93,113.4,,138.35,,Single-ply,SBD,M
Boys,82.1,DQ,James Henderson #3,Tolar,75.48,183.7,92.99,,,Single-ply,SBD,M
Boys,82.1,DQ,Logan Randal,Rio Vista,81.83,,97.52,,,Single-ply,SBD,M
Boys,82.1,DQ,Jacob Riley,Dublin,78.38,,108.86,222.26,,Single-ply,SBD,M
Boys,82.1,DQ,Jim Fowler,Early,79.29,183.7,,174.63,,Single-ply,SBD,M
Boys,82.1,DQ,Victor De Los Santos,Glen Rose,81.1,156.49,,158.76,,Single-ply,SBD,M
Boys,82.1,DQ,Dakota Paschall,Glen Rose,77.75,151.95,,158.76,,Single-ply,SBD,M
Boys,89.81,1,Emiliano Jimenez,Comanche,87.91,204.12,129.27,208.65,542.04,Single-ply,SBD,M
Boys,89.81,2,Tate Swearengin,Brock,82.55,158.76,122.47,190.51,471.74,Single-ply,SBD,M
Boys,89.81,3,Jason Wiggin,Rio Vista,89.81,192.78,83.91,195.04,471.74,Single-ply,SBD,M
Boys,89.81,4,Fernando Fernandez,Chilton,83.46,136.08,120.2,181.44,437.72,Single-ply,SBD,M
Boys,89.81,5,Bobby Thompson,Millsap,89.27,161.03,83.91,165.56,410.5,Single-ply,SBD,M
Boys,89.81,6,Ethan Clapp,Brock,85.28,145.15,97.52,158.76,401.43,Single-ply,SBD,M
Boys,89.81,7,Ylee Muro,Dublin,84.46,147.42,90.72,142.88,381.02,Single-ply,SBD,M
Boys,89.81,8,Grant McGarity,Glen Rose,89.27,90.72,77.11,140.61,308.44,Single-ply,SBD,M
Boys,89.81,DQ,Jadyn Lehde,Early,83.37,136.08,,127.01,,Single-ply,SBD,M
Boys,99.79,1,Miguel Elizondo,Early,93.98,231.33,147.42,190.51,569.26,Single-ply,SBD,M
Boys,99.79,2,Mason King,Tolar,99.06,206.38,124.74,215.46,546.58,Single-ply,SBD,M
Boys,99.79,3,Kendal Beck,Comanche,96.89,188.24,122.47,190.51,501.22,Single-ply,SBD,M
Boys,99.79,4,Sage Boleman,Brock,97.98,174.63,120.2,190.51,485.34,Single-ply,SBD,M
Boys,99.79,5,Jonah Wilson,Glen Rose,98.25,181.44,122.47,167.83,471.74,Single-ply,SBD,M
Boys,99.79,6,Tre Rose,Brock,98.43,183.7,117.93,158.76,460.4,Single-ply,SBD,M
Boys,99.79,7,Noble Stevens,Millsap,94.35,165.56,106.59,183.7,455.86,Single-ply,SBD,M
Boys,99.79,8,Tanner Stroud,Glen Rose,95.07,158.76,111.13,183.7,453.59,Single-ply,SBD,M
Boys,99.79,9,Jeron Conine,Comanche,97.79,176.9,99.79,158.76,435.45,Single-ply,SBD,M
Boys,99.79,10,Ethan Cooper,Tolar,91.99,124.74,102.06,142.88,369.68,Single-ply,SBD,M
Boys,99.79,11,Julina Ortuno,Lingleville,98.43,154.22,68.04,145.15,367.41,Single-ply,SBD,M
Boys,99.79,12,Jesus Cervantes,San Saba,98.7,129.27,83.91,136.08,349.27,Single-ply,SBD,M
Boys,99.79,13,Arturo Guerrero,Millsap,92.9,136.08,79.38,129.27,344.73,Single-ply,SBD,M
Boys,99.79,14,Zander Webb,Alvarado,92.71,122.47,68.04,127.01,317.51,Single-ply,SBD,M
Boys,99.79,15,Jackson Bayer,Waco Reicher Catholic,99.34,113.4,70.31,129.27,312.98,Single-ply,SBD,M
Boys,99.79,16,Tony Ramos #3,Glen Rose,93.17,102.06,77.11,124.74,303.91,Single-ply,SBD,M
Boys,99.79,17,Jacob Pena,Glen Rose,93.62,99.79,72.57,127.01,299.37,Single-ply,SBD,M
Boys,99.79,DQ,Zac Powell,Glen Rose,99.25,147.42,,140.61,,Single-ply,SBD,M
Boys,99.79,DQ,Zach Matzke,Brock,97.16,165.56,83.91,,,Single-ply,SBD,M
Boys,109.77,1,Nick Lara,Glen Rose,107.95,183.7,129.27,192.78,505.76,Single-ply,SBD,M
Boys,109.77,2,Fabian Alvarez,Rio Vista,103.78,183.7,99.79,201.85,485.34,Single-ply,SBD,M
Boys,109.77,3,Isaiah Cisneroz,Dublin,109.32,208.65,102.06,170.1,480.81,Single-ply,SBD,M
Boys,109.77,4,Jacob Collier,Cross Plains,102.06,181.44,113.4,183.7,478.54,Single-ply,SBD,M
Boys,109.77,5,Julian Landeros,Chilton,106.59,165.56,102.06,183.7,451.32,Single-ply,SBD,M
Boys,109.77,6,Alan Martinez,San Saba,106.68,165.56,120.2,163.29,449.06,Single-ply,SBD,M
Boys,109.77,7,Daniel Aguilar,Millsap,101.7,167.83,104.33,158.76,430.91,Single-ply,SBD,M
Boys,109.77,8,Clayton Pierce,San Saba,103.06,151.95,108.86,156.49,417.3,Single-ply,SBD,M
Boys,109.77,9,Sawyer Barron,Ranger,103.96,158.76,102.06,136.08,396.89,Single-ply,SBD,M
Boys,109.77,DQ,Isaac Navarette,Glen Rose,106.5,142.88,,145.15,,Single-ply,SBD,M
Boys,124.74,1,Pedro Bernal,Comanche,114.58,283.5,147.42,260.82,691.73,Single-ply,SBD,M
Boys,124.74,2,Ethan Price,Dublin,112.13,258.55,192.78,226.8,678.12,Single-ply,SBD,M
Boys,124.74,3,Miguel Guevara,Tolar,115.76,219.99,120.2,233.6,573.79,Single-ply,SBD,M
Boys,124.74,4,Nick Bourdelais,Millsap,122.42,208.65,108.86,229.06,546.58,Single-ply,SBD,M
Boys,124.74,5,Crispin Salinas,Chilton,111.13,213.19,117.93,213.19,544.31,Single-ply,SBD,M
Boys,124.74,6,Hayden Shaw,Glen Rose,115.03,185.97,104.33,174.63,464.93,Single-ply,SBD,M
Boys,124.74,7,Will Bridgewater,Hamilton,111.58,174.63,92.99,195.04,462.66,Single-ply,SBD,M
Boys,124.74,8,Ricardo Martinez #5,Rio Vista,117.39,176.9,97.52,181.44,455.86,Single-ply,SBD,M
Boys,124.74,9,Stran Burrow,Dublin,121.65,149.69,92.99,149.69,392.36,Single-ply,SBD,M
Boys,124.74,DQ,Trey Guzman,Alvarado,114.76,156.49,,142.88,,Single-ply,SBD,M
Boys,124.74,DQ,Jake Rollen,Glen Rose,113.94,124.74,,124.74,,Single-ply,SBD,M
Boys,124.74,DQ,Brayden Anderson,Tolar,114.94,,74.84,133.81,,Single-ply,SBD,M
Boys,124.74+,1,David Garcia,Alvarado,146.06,272.16,213.19,249.48,734.82,Single-ply,SBD,M
Boys,124.74+,2,John Brunner #2,Brock,137.71,204.12,115.67,185.97,505.76,Single-ply,SBD,M
Boys,124.74+,3,Angel Gaytan,Chilton,138.25,204.12,117.93,181.44,503.49,Single-ply,SBD,M
Boys,124.74+,4,Cole Evert,Glen Rose,128.55,161.03,83.91,151.95,396.89,Single-ply,SBD,M
