Division,WeightClassKg,Place,Name,Team,BodyweightKg,Best3SquatKg,Best3BenchKg,Best3DeadliftKg,TotalKg,Equipment,Event,Sex
Girls,44.23,1,Alyssa Mathews,White Oak,44.18,86.18,49.9,115.67,251.74,Single-ply,SBD,F
Girls,44.23,2,Audrey Gonzalez,Ore City,42.73,88.45,34.02,86.18,208.65,Single-ply,SBD,F
Girls,44.23,3,Melissa Roach,Corsicana Mildred,40.28,58.97,31.75,79.38,170.1,Single-ply,SBD,F
Girls,47.85,1,Kayla Wilson,Diana New Diana,47.45,58.97,29.48,63.5,151.95,Single-ply,SBD,F
Girls,51.94,1,Chick Johnson,New Boston,50.35,131.54,56.7,122.47,310.71,Single-ply,SBD,F
Girls,51.94,2,Sara Bouldin,Normangee,50.98,97.52,45.36,117.93,260.82,Single-ply,SBD,F
Girls,51.94,3,Shayla Roddey,Normangee,51.8,79.38,45.36,111.13,235.87,Single-ply,SBD,F
Girls,51.94,4,Bella Guajardo,Corsicana Mildred,49.8,81.65,38.56,92.99,213.19,Single-ply,SBD,F
Girls,51.94,5,Morgan Hill,White Oak,49.71,81.65,36.29,97.52,215.46,Single-ply,SBD,F
Girls,51.94,6,Diana Aguilar,Queen City,49.99,72.57,43.09,92.99,208.65,Single-ply,SBD,F
Girls,51.94,7,Paige Hill,Diana New Diana,51.53,74.84,38.56,88.45,201.85,Single-ply,SBD,F
Girls,51.94,8,Hannah Bennett #1,Waskom,49.9,63.5,38.56,95.25,197.31,Single-ply,SBD,F
Girls,51.94,9,Kylee Fincher,Queen City,51.89,74.84,38.56,81.65,195.04,Single-ply,SBD,F
Girls,51.94,10,Lauren Upchruch,Queen City,50.35,72.57,31.75,88.45,192.78,Single-ply,SBD,F
Girls,56.02,1,Kaylin Lansford,Queen City,55.52,95.25,43.09,102.06,240.4,Single-ply,SBD,F
Girls,56.02,2,Shyanne Troxell,White Oak,54.7,90.72,29.48,86.18,206.38,Single-ply,SBD,F
Girls,56.02,3,Katie Harper,Waskom,52.25,74.84,43.09,83.91,201.85,Single-ply,SBD,F
Girls,56.02,4,Stephanie Ross,Hawkins,55.43,65.77,38.56,79.38,183.7,Single-ply,SBD,F
Girls,56.02,5,Maya Sheppard,White Oak,52.62,65.77,31.75,83.91,181.44,Single-ply,SBD,F
Girls,56.02,DQ,Paige Gonzalez,Redwater,54.79,,,,,Single-ply,SBD,F
Girls,56.02,DQ,Jettia Bradley,Daingerfield,52.89,,,,,Single-ply,SBD,F
Girls,60.1,1,Savannah Talbert,Shelbyville,59.33,124.74,40.82,115.67,281.23,Single-ply,SBD,F
Girls,60.1,2,Sykorian Loller,Tyler,56.43,90.72,43.09,92.99,226.8,Single-ply,SBD,F
Girls,60.1,3,Emily Mouser,Queen City,56.79,83.91,43.09,99.79,226.8,Single-ply,SBD,F
Girls,60.1,4,Maggie Clark,Queen City,57.79,81.65,31.75,99.79,213.19,Single-ply,SBD,F
Girls,67.36,1,Meghan Bowling,White Oak,65.5,142.88,77.11,138.35,358.34,Single-ply,SBD,F
Girls,67.36,2,Lauren Ummel,White Oak,63.96,136.08,61.23,136.08,333.39,Single-ply,SBD,F
Girls,67.36,3,Lauren Honzell,Overton,66.68,120.2,56.7,145.15,322.05,Single-ply,SBD,F
Girls,67.36,4,Dewayna Johnson,New London West Rusk,63.32,133.81,52.16,120.2,306.17,Single-ply,SBD,F
Girls,67.36,5,Anette Marmolejo,New London West Rusk,66.13,122.47,45.36,113.4,281.23,Single-ply,SBD,F
Girls,67.36,6,Blakely Lott,White Oak,60.6,117.93,47.63,113.4,278.96,Single-ply,SBD,F
Girls,67.36,7,Harley Hudgins,New Boston,63.87,122.47,49.9,106.59,278.96,Single-ply,SBD,F
Girls,67.36,8,Devin Gonzalez #2,Elysian Fields,67.13,95.25,54.43,127.01,276.69,Single-ply,SBD,F
Girls,67.36,9,Senano,Waskom,66.86,95.25,49.9,117.93,263.08,Single-ply,SBD,F
Girls,67.36,10,Angel Captenter,Corsicana Mildred,64.32,106.59,45.36,106.59,258.55,Single-ply,SBD,F
Girls,67.36,11,Cailtyn Martin,Elysian Fields,67.13,92.99,40.82,111.13,244.94,Single-ply,SBD,F
Girls,67.36,12,Kendall Bibb,Waskom,66.95,83.91,43.09,113.4,240.4,Single-ply,SBD,F
Girls,67.36,13,Destinee Wilson,Normangee,63.23,88.45,40.82,106.59,235.87,Single-ply,SBD,F
Girls,67.36,14,Samantha Kidd,Jefferson,62.05,77.11,38.56,102.06,217.72,Single-ply,SBD,F
Girls,67.36,15,Colleen Pulpan,White Oak,64.5,81.65,40.82,72.57,195.04,Single-ply,SBD,F
Girls,67.36,16,Minoy Moore,Jefferson,64.77,65.77,34.02,86.18,185.97,Single-ply,SBD,F
Girls,67.36,DQ,Christina Gutierrez,Hawkins,64.32,120.2,56.7,145.15,,Single-ply,SBD,F
Girls,75.07,1,Asaya'na Jackson,Corsicana Mildred,67.59,145.15,70.31,163.29,378.75,Single-ply,SBD,F
Girls,75.07,2,Carmen Soto,White Oak,73.94,147.42,58.97,129.27,335.66,Single-ply,SBD,F
Girls,75.07,3,Brianna Harrison,Redwater,69.94,127.01,47.63,99.79,274.42,Single-ply,SBD,F
Girls,75.07,4,Gabrielle Murphy,New London West Rusk,70.13,113.4,38.56,113.4,265.35,Single-ply,SBD,F
Girls,75.07,5,Destiny Reynolds,Diana New Diana,69.4,90.72,52.16,99.79,242.67,Single-ply,SBD,F
Girls,75.07,6,Keri Duke,Longview,74.39,86.18,34.02,83.91,204.12,Single-ply,SBD,F
Girls,75.07,DQ,Brianna Garcia,Ore City,67.4,,,,,Single-ply,SBD,F
Girls,75.07,DQ,Madison Borden,White Oak,70.03,,,,,Single-ply,SBD,F
Girls,82.33,1,Adrianna Hill,Daingerfield,81.92,117.93,56.7,142.88,317.51,Single-ply,SBD,F
Girls,82.33,2,Meagan Langdon,Redwater,77.47,117.93,56.7,117.93,292.57,Single-ply,SBD,F
Girls,82.33,3,Beth Peterson,White Oak,79.2,113.4,52.16,127.01,292.57,Single-ply,SBD,F
Girls,82.33,4,Larissa Schaeffer,Diana New Diana,79.47,79.38,45.36,127.01,251.74,Single-ply,SBD,F
Girls,82.33,5,Madison Mabry,White Oak,75.93,95.25,54.43,95.25,244.94,Single-ply,SBD,F
Girls,82.33,6,Courtney Emwery,Waskom,77.56,81.65,47.63,90.72,219.99,Single-ply,SBD,F
Girls,82.33,DQ,Sam Clements,Queen City,77.11,,,,,Single-ply,SBD,F
Girls,82.33,DQ,Shametriece Black,Daingerfield,81.92,,,,,Single-ply,SBD,F
Girls,90.04,1,Aimee Rodriguez,White Oak,85.37,147.42,61.23,140.61,349.27,Single-ply,SBD,F
Girls,90.04,2,Hannah Feuhs,Normangee,83.73,117.93,54.43,131.54,303.91,Single-ply,SBD,F
Girls,90.04,3,Tristan Gotreaux,Normangee,86.45,111.13,56.7,124.74,292.57,Single-ply,SBD,F
Girls,90.04,4,Merrilon Garlick,Normangee,84.55,108.86,49.9,117.93,276.69,Single-ply,SBD,F
Girls,90.04,5,Amy Martin,White Oak,83.19,65.77,34.02,77.11,176.9,Single-ply,SBD,F
Girls,100.02,1,Paige Henderson,Quitman,99.52,149.69,65.77,145.15,360.61,Single-ply,SBD,F
Girls,100.02,2,Cydney Crawford,New Boston,98.16,156.49,70.31,131.54,358.34,Single-ply,SBD,F
Girls,100.02,3,Tyren Saunders,Redwater,99.79,136.08,56.7,124.74,317.51,Single-ply,SBD,F
Girls,100.02,4,Baylee Leach,Diana New Diana,90.45,83.91,58.97,102.06,244.94,Single-ply,SBD,F
Girls,100.02+,1,Hannah Wall,Ore City,130.36,136.08,63.5,147.42,347,Single-ply,SBD,F
Girls,100.02+,2,Jessica Sanford,Shelbyville,101.24,151.95,54.43,120.2,326.59,Single-ply,SBD,F
Girls,100.02+,3,Alecia Odle,White Oak,106.59,106.59,49.9,117.93,274.42,Single-ply,SBD,F
