Place,Name,Sex,BirthDate,Age,Country,State,Equipment,Division,BodyweightKg,WeightClassKg,Squat1Kg,Squat2Kg,Squat3Kg,Best3SquatKg,Bench1Kg,Bench2Kg,Bench3Kg,Best3BenchKg,Deadlift1Kg,Deadlift2Kg,Deadlift3Kg,Deadlift4Kg,Best3DeadliftKg,TotalKg,Event
1,Jessica Nguyen,F,1998-02-05,23,USA,CA,Raw,Juniors 20-23,58.4,60,115,-120,-120,115,55,57.5,60,60,140,-145,-145,,140,315,SBD
1,Lulu Mansour,F,1997-06-10,23,USA,CA,Raw,Juniors 20-23,66.7,67.5,117.5,130,-137.5,130,75,80,82.5,82.5,145,160,172.5,-182.5,172.5,385,SBD
1,Mindy Griffin,F,1981-08-06,39,USA,CA,Raw,Submasters 35-39,58.6,60,77.5,-85,85,85,52.5,55,-60,55,105,112.5,-117.5,,112.5,252.5,SBD
1,Brianna Bowers,F,1992-01-25,29,USA,CA,Raw,Open,55.1,56,92.5,-97.5,97.5,97.5,47.5,-50,-50,47.5,100,107.5,110,,110,255,SBD
1,Mindy Griffin,F,1981-08-06,39,USA,CA,Raw,Open,58.6,60,77.5,-85,85,85,52.5,55,-60,55,105,112.5,-117.5,,112.5,252.5,SBD
1,Lulu Mansour,F,1997-06-10,23,USA,CA,Raw,Open,66.7,67.5,117.5,130,-137.5,130,75,80,82.5,82.5,145,160,172.5,-182.5,172.5,385,SBD
2,Tori Riegler,F,1992-12-03,28,USA,CA,Raw,Open,65,67.5,125,-137.5,137.5,137.5,60,65,67.5,67.5,132.5,142.5,152.5,,152.5,357.5,SBD
1,Jaay Han,F,1994-02-26,26,USA,CA,Raw,Open,69.6,75,130,140,145,145,80,85,-90,85,162.5,172.5,180,,180,410,SBD
2,Camille Masica,F,1990-08-20,30,USA,CA,Raw,Open,73.1,75,92.5,105,112.5,112.5,47.5,57.5,60,60,105,120,127.5,,127.5,300,SBD
1,Corinna Rosas,F,1995-11-09,25,USA,CA,Raw,Open,80.3,82.5,142.5,147.5,-150,147.5,62.5,67.5,-70,67.5,170,177.5,182.5,,182.5,397.5,SBD
1,Ray Matheny,F,2004-02-20,16,USA,CA,Raw,Teen 14-16,63.6,67.5,87.5,92.5,100,100,40,42.5,-47.5,42.5,97.5,102.5,115,,115,257.5,SBD
1,Tsukiko Fredette,F,1997-10-22,23,USA,CA,Wraps,Open,59.6,60,182.5,-195,-195,182.5,82.5,-87.5,87.5,87.5,177.5,185,-190,,185,455,SBD
1,Justin Domingo,M,,21,USA,CA,Raw,Juniors 20-23,66.7,67.5,147.5,160,167.5,167.5,95,-100,102.5,102.5,197.5,207.5,-217.5,,207.5,477.5,SBD
1,Mazyar Atashband,M,1998-03-31,22,USA,CA,Raw,Juniors 20-23,78,82.5,150,157.5,162.5,162.5,105,110,-112.5,110,180,190,-197.5,,190,462.5,SBD
1,Brandon Arnold,M,1997-04-01,23,USA,CA,Raw,Juniors 20-23,96.8,100,202.5,217.5,227.5,227.5,132.5,142.5,147.5,147.5,245,265,275,,275,650,SBD
1,Michael Brown #28,M,1986-06-30,34,USA,CA,Raw,Open,89.3,90,182.5,200,210,210,135,150,152.5,152.5,232.5,252.5,265,,265,627.5,SBD
1,Adrian Palamos,M,1994-05-24,26,USA,CA,Raw,Open,80,82.5,170,180,187.5,187.5,110,120,-130,120,220,230,237.5,,237.5,545,SBD
2,Adelmo Rodriguez Jr,M,1996-11-17,24,USA,CA,Raw,Open,82.5,82.5,-200,200,-205,200,115,122.5,125,125,185,192.5,200,,200,525,SBD
3,Alex Llerenas,M,1975-09-03,45,USA,CA,Raw,Open,82.3,82.5,107.5,120,132.5,132.5,117.5,-130,-130,117.5,157.5,170,182.5,,182.5,432.5,SBD
1,Brandon Wright,M,1995-07-25,25,USA,CA,Raw,Open,89.3,90,195,210,-220,210,160,167.5,172.5,172.5,240,252.5,262.5,,262.5,645,SBD
2,Frederick Tan,M,1983-04-08,37,USA,CA,Raw,Open,86.8,90,-160,160,172.5,172.5,97.5,105,-107.5,105,197.5,205,-215,,205,482.5,SBD
DQ,Enrique Soto,M,1994-03-02,26,USA,CA,Raw,Open,84.6,90,-125,-125,-125,,,,,,,,,,,,SBD
1,Thomas Brooks,M,1988-01-16,33,USA,AL,Raw,Open,99.8,100,225,242.5,250,250,145,157.5,165,165,242.5,265,275,,275,690,SBD
1,Houston Sullivan,M,1985-07-10,35,USA,CA,Raw,Open,106.5,110,275,292.5,305,305,177.5,187.5,192.5,192.5,282.5,307.5,325,,325,822.5,SBD
2,Aaron Raschel,M,1987-10-31,33,USA,CA,Raw,Open,105.7,110,-190,195,207.5,207.5,147.5,157.5,165,165,185,207.5,220,,220,592.5,SBD
1,Ray Luna,M,1982-08-10,38,USA,CA,Raw,Open,121.6,125,232.5,247.5,252.5,252.5,185,190,195,195,232.5,242.5,250,,250,697.5,SBD
1,Xavier Burse,M,1998-05-04,22,USA,CA,Wraps,Juniors 20-23,91.7,100,300,-310,310,310,165,-172.5,172.5,172.5,300,320,-330,,320,802.5,SBD
1,Gerald Dionio,M,1993-12-02,27,USA,CA,Wraps,Open,67,67.5,217.5,237.5,260,260,160,177.5,182.5,182.5,272.5,-300,-300,,272.5,715,SBD
1,Channing Doyle,M,1987-10-28,33,USA,CA,Wraps,Open,89.6,90,-317.5,335,,335,175,187.5,195,195,300,-335,,,300,830,SBD
1,Jensen Kierulff,M,1980-08-10,40,USA,CA,Wraps,Open,99.2,100,275,-292.5,297.5,297.5,180,192.5,200,200,300,320,-327.5,,320,817.5,SBD
1,Marcus Sannadan,M,1990-08-17,30,USA,CA,Wraps,Open,123.8,125,-392.5,392.5,410,410,-235,235,,235,322.5,340,-352.5,,340,985,SBD
