Division,WeightClassKg,Place,Name,Team,BodyweightKg,Best3SquatKg,Best3BenchKg,Best3DeadliftKg,TotalKg,Equipment,Event,Sex
Boys,55.79,1,Gabe Senegal,Little River Academy,51.89,88.45,74.84,136.08,299.37,Single-ply,SBD,M
Boys,51.71,2,Trey Fuller,Jarrell,46.54,102.06,54.43,97.52,254.01,Single-ply,SBD,M
Boys,51.71,3,Clayton Moore,Granger,47.99,90.72,52.16,102.06,244.94,Single-ply,SBD,M
Boys,51.71,4,Clay Cosgrove,Lago Vista,44.27,72.57,54.43,90.72,217.72,Single-ply,SBD,M
Boys,51.71,5,Bj Byars,Little River Academy,49.99,68.04,43.09,86.18,197.31,Single-ply,SBD,M
Boys,51.71,6,Wyatt McClaren,Clifton,51.62,72.57,43.09,65.77,181.44,Single-ply,SBD,M
Boys,51.71,DQ,Gunner Gardner,Granger,51.71,,,,,Single-ply,SBD,M
Boys,55.79,1,Caleb Coates,Lago Vista,54.98,149.69,77.11,145.15,371.95,Single-ply,SBD,M
Boys,55.79,2,Aron Fraire,Salado,54.88,117.93,65.77,115.67,299.37,Single-ply,SBD,M
Boys,55.79,3,Dakota Thomas,Clifton,55.43,104.33,61.23,124.74,290.3,Single-ply,SBD,M
Boys,55.79,4,Aaron Simms,Clifton,55.79,108.86,68.04,113.4,290.3,Single-ply,SBD,M
Boys,55.79,5,Juan Ramirez,Jarrell,55.79,111.13,58.97,,170.1,Single-ply,SB,M
Boys,55.79,DQ,Kenny Roca,Venus,55.79,,,,,Single-ply,SB,M
Boys,67.13,1,Marcelino Coronado,Clifton,60.06,158.76,77.11,158.76,394.63,Single-ply,SBD,M
Boys,59.87,2,Rey Castro,Waco Reicher Catholic,59.51,142.88,83.91,154.22,381.02,Single-ply,SBD,M
Boys,59.87,3,Michael Kohl #1,Rosebud-Lott,58.97,142.88,83.91,145.15,371.95,Single-ply,SBD,M
Boys,67.13,4,Rene Rivas,Venus,60.06,136.08,81.65,145.15,362.87,Single-ply,SBD,M
Boys,59.87,5,Lorenzo Lizardo,Granger,59.69,136.08,90.72,124.74,351.53,Single-ply,SBD,M
Boys,59.87,6,Carlos Ortiz #2,Salado,58.51,136.08,79.38,133.81,349.27,Single-ply,SBD,M
Boys,59.87,7,Marcus Mendoza,Salado,57.97,129.27,74.84,124.74,328.85,Single-ply,SBD,M
Boys,59.87,8,Isaac Gonzales,Waco Reicher Catholic,58.79,131.54,61.23,136.08,328.85,Single-ply,SBD,M
Boys,59.87,9,Richard Moran,Jarrell,56.88,102.06,61.23,113.4,276.69,Single-ply,SBD,M
Boys,59.87,10,John Kruger,Rosebud-Lott,59.69,83.91,72.57,113.4,269.89,Single-ply,SBD,M
Boys,59.87,11,Levi Mowles,Venus,59.33,108.86,63.5,90.72,263.08,Single-ply,SBD,M
Boys,59.87,12,Yan Torres,Jarrell,58.42,95.25,,97.52,192.78,Single-ply,SD,M
Boys,67.13,1,Osiel Avilez,Jarrell,66.22,213.19,129.27,217.72,560.19,Single-ply,SBD,M
Boys,67.13,2,Andrew Aleman,Granger,66.32,185.97,90.72,136.08,412.77,Single-ply,SBD,M
Boys,67.13,3,Manuel Ramirez,Florence,62.05,142.88,88.45,165.56,396.89,Single-ply,SBD,M
Boys,67.13,4,Daniel Beltran,Jarrell,62.41,142.88,92.99,161.03,396.89,Single-ply,SBD,M
Boys,67.13,5,Victor Moya,Jarrell,66.5,140.61,95.25,151.95,387.82,Single-ply,SBD,M
Boys,67.13,6,Wesley Smith,Lago Vista,64.68,136.08,83.91,158.76,378.75,Single-ply,SBD,M
Boys,67.13,7,Josh Robinson,Salado,62.96,124.74,92.99,154.22,371.95,Single-ply,SBD,M
Boys,67.13,8,Zach Robinson #2,Salado,67.13,140.61,83.91,145.15,369.68,Single-ply,SBD,M
Boys,67.13,9,Pedro Juarez,Granger,63.14,127.01,79.38,145.15,351.53,Single-ply,SBD,M
Boys,67.13,10,Zach Robles,Burnet,64.68,117.93,72.57,154.22,344.73,Single-ply,SBD,M
Boys,67.13,11,Alex Kelso,Lago Vista,63.87,131.54,58.97,140.61,331.12,Single-ply,SBD,M
Boys,67.13,12,Brock Hyland,Crawford,61.23,136.08,79.38,113.4,328.85,Single-ply,SBD,M
Boys,67.13,13,Billy Burleson,Lago Vista,65.59,113.4,68.04,140.61,322.05,Single-ply,SBD,M
Boys,67.13,14,Jay Anderson,Granger,64.77,102.06,70.31,138.35,310.71,Single-ply,SBD,M
Boys,67.13,15,Kyle Geydos,Granger,63.05,97.52,70.31,136.08,303.91,Single-ply,SBD,M
Boys,67.13,16,Drew Manley,Salado,66.68,106.59,61.23,129.27,297.1,Single-ply,SBD,M
Boys,67.13,17,Alex O'Neil,Waco Reicher Catholic,64.32,95.25,68.04,113.4,276.69,Single-ply,SBD,M
Boys,67.13,18,Kevin Garretson,Crawford,66.68,102.06,65.77,106.59,274.42,Single-ply,SBD,M
Boys,67.13,19,Nick Loden,Crawford,64.95,90.72,65.77,108.86,265.35,Single-ply,SBD,M
Boys,67.13,DQ,Daniel Steinkamp,Crawford,67.13,,,,,Single-ply,SBD,M
Boys,67.13,DQ,Adrian Corona,Burnet,67.13,,,,,Single-ply,SBD,M
Boys,67.13,DQ,Humberto Mejia,Burnet,67.13,,,,,Single-ply,SBD,M
Boys,67.13,DQ,Fernando Mora,Florence,67.13,,,,,Single-ply,SBD,M
Boys,67.13,DQ,Michael Arvizu,Lago Vista,67.13,,,,,Single-ply,SBD,M
Boys,67.13,DQ,Josh Kruger,Rosebud-Lott,64.95,,79.38,136.08,,Single-ply,SBD,M
Boys,67.13,DQ,Kenny Billman,Clifton,64.95,113.4,,136.08,,Single-ply,SBD,M
Boys,74.84,1,Dillon Sterling,Florence,73.84,204.12,124.74,226.8,555.65,Single-ply,SBD,M
Boys,74.84,2,Jathen Craig,Burnet,74.57,192.78,140.61,195.04,528.44,Single-ply,SBD,M
Boys,74.84,3,Garrison Dean,Crawford,70.67,170.1,106.59,183.7,460.4,Single-ply,SBD,M
Boys,74.84,4,Joe Brown #4,Burnet,69.4,174.63,95.25,183.7,453.59,Single-ply,SBD,M
Boys,74.84,5,Zach Murray,Venus,74.3,170.1,90.72,163.29,424.11,Single-ply,SBD,M
Boys,74.84,6,Josh Frank,Burnet,69.58,158.76,88.45,170.1,417.3,Single-ply,SBD,M
Boys,74.84,7,Dylan Barbiaux,Granger,68.49,142.88,92.99,172.37,408.23,Single-ply,SBD,M
Boys,74.84,8,Cole Goodrum,Salado,73.48,140.61,88.45,151.95,381.02,Single-ply,SBD,M
Boys,74.84,9,Jonathan Moore,Crawford,69.13,142.88,90.72,142.88,376.48,Single-ply,SBD,M
Boys,74.84,10,Michael Eusepi,Venus,69.67,147.42,79.38,149.69,376.48,Single-ply,SBD,M
Boys,74.84,11,Ryan West,Burnet,73.75,145.15,72.57,156.49,374.21,Single-ply,SBD,M
Boys,74.84,12,Marcos Cardenas,Jarrell,69.4,142.88,83.91,145.15,371.95,Single-ply,SBD,M
Boys,74.84,13,Matthew Kingsbury,Lago Vista,73.21,122.47,72.57,149.69,344.73,Single-ply,SBD,M
Boys,74.84,14,Kelly Jimenez,Salado,68.76,131.54,86.18,117.93,335.66,Single-ply,SBD,M
Boys,74.84,15,Eston Garrestson,Crawford,74.39,113.4,74.84,131.54,319.78,Single-ply,SBD,M
Boys,74.84,16,Ryan Martin,Clifton,72.12,136.08,,172.37,308.44,Single-ply,SD,M
Boys,74.84,17,Patrick Wright,Waco Reicher Catholic,71.49,108.86,70.31,124.74,303.91,Single-ply,SBD,M
Boys,74.84,18,Javier Ruiz,Rosebud-Lott,69.67,124.74,,156.49,281.23,Single-ply,SD,M
Boys,74.84,19,Todd Bailey,Salado,68.49,92.99,,104.33,197.31,Single-ply,SD,M
Boys,74.84,20,Jacob Guilbault,Waco Reicher Catholic,68.49,117.93,70.31,,188.24,Single-ply,SB,M
Boys,74.84,DQ,Kody Kittrell,Venus,74.84,,,,,Single-ply,SB,M
Boys,74.84,DQ,Julio Rodriguez,Venus,74.84,,,,,Single-ply,SB,M
Boys,74.84,DQ,Greg Hoy,Crawford,70.13,,,,,Single-ply,SB,M
Boys,74.84,DQ,Thaivan Simmons,Jarrell,74.84,,,,,Single-ply,SB,M
Boys,74.84,DQ,Andrew Davis #6,Lago Vista,74.84,,,,,Single-ply,SB,M
Boys,74.84,DQ,Daniel Aaron,Lago Vista,74.84,,,,,Single-ply,SB,M
Boys,74.84,DQ,Josh Dews,Granger,70.13,142.88,74.84,,,Single-ply,SB,M
Boys,74.84,DQ,Canyon Murrah,Granger,69.67,,,,,Single-ply,SB,M
Boys,82.1,1,Dillon Ferguson,Burnet,75.57,222.26,129.27,192.78,544.31,Single-ply,SBD,M
Boys,82.1,2,Lee Young,Little River Academy,80.29,163.29,117.93,183.7,464.93,Single-ply,SBD,M
Boys,82.1,3,Justin Hokams,Jarrell,80.29,174.63,102.06,167.83,444.52,Single-ply,SBD,M
Boys,82.1,4,Dustin Kuchler,Burnet,77.2,158.76,92.99,161.03,412.77,Single-ply,SBD,M
Boys,82.1,5,David Cortes,Jarrell,80.1,161.03,90.72,151.95,403.7,Single-ply,SBD,M
Boys,82.1,6,John Pegues,Salado,77.11,140.61,92.99,158.76,392.36,Single-ply,SBD,M
Boys,82.1,7,Chris Olsen,Crawford,77.47,142.88,92.99,145.15,381.02,Single-ply,SBD,M
Boys,82.1,8,Frederick Schmidt,Burnet,78.2,136.08,58.97,142.88,337.93,Single-ply,SBD,M
Boys,82.1,9,Destin Bardin,Crawford,76.02,83.91,52.16,111.13,247.21,Single-ply,SBD,M
Boys,82.1,DQ,Cody Hegedus,Lago Vista,82.1,,,,,Single-ply,SBD,M
Boys,82.1,DQ,Mitchell Hampton,Venus,82.1,,,,,Single-ply,SBD,M
Boys,82.1,DQ,Andrew Drennan,Waco Reicher Catholic,82.1,,,,,Single-ply,SBD,M
Boys,82.1,DQ,Joel Sifuentes,Granger,79.29,154.22,92.99,,,Single-ply,SBD,M
Boys,99.79,1,Steven Stewart #2,Little River Academy,89.99,208.65,142.88,206.38,557.92,Single-ply,SBD,M
Boys,89.81,2,Roy Rodriguez,Clifton,86.91,206.38,120.2,206.38,532.97,Single-ply,SBD,M
Boys,89.81,3,Grayson Floyd,Burnet,87.54,199.58,106.59,195.04,501.22,Single-ply,SBD,M
Boys,89.81,4,Cj Daniel,Florence,86.09,181.44,136.08,172.37,489.88,Single-ply,SBD,M
Boys,89.81,5,Mikey Seller,Salado,87.54,174.63,124.74,181.44,480.81,Single-ply,SBD,M
Boys,89.81,6,Kenneth Bible,Clifton,89.18,181.44,117.93,181.44,480.81,Single-ply,SBD,M
Boys,89.81,7,Shelby Bowers,Florence,87.63,172.37,104.33,185.97,462.66,Single-ply,SBD,M
Boys,89.81,8,Kevin Abercrombie,Little River Academy,88.9,181.44,108.86,170.1,460.4,Single-ply,SBD,M
Boys,89.81,9,Alex Cruz,Granger,85.55,158.76,117.93,179.17,455.86,Single-ply,SBD,M
Boys,89.81,10,Devvin Fritsch,Burnet,84.37,158.76,102.06,154.22,415.04,Single-ply,SBD,M
Boys,89.81,11,Cyle Hickey,Crawford,89.45,142.88,72.57,167.83,383.29,Single-ply,SBD,M
Boys,89.81,12,Greyson Vela,Waco Reicher Catholic,87.54,163.29,106.59,,269.89,Single-ply,SB,M
Boys,89.81,13,John Ekman,Waco Reicher Catholic,84.64,142.88,,,142.88,Single-ply,S,M
Boys,89.81,DQ,Terry Austin,Lago Vista,89.81,,,,,Single-ply,S,M
Boys,99.79,DQ,John Maddigan,Rosebud-Lott,89.99,181.44,,195.04,,Single-ply,SD,M
Boys,99.79,1,Tyler Moon,Little River Academy,98.97,226.8,154.22,238.14,619.15,Single-ply,SBD,M
Boys,99.79,2,Dalton Bynum,Clifton,92.62,204.12,142.88,219.99,566.99,Single-ply,SBD,M
Boys,99.79,3,Caleb Little,Salado,99.79,192.78,102.06,229.06,523.9,Single-ply,SBD,M
Boys,99.79,4,Austin Brewer,Clifton,99.7,192.78,108.86,192.78,494.42,Single-ply,SBD,M
Boys,99.79,5,Jacob Gonzales,Granger,94.17,170.1,106.59,199.58,476.27,Single-ply,SBD,M
Boys,99.79,6,Billy Golding,Salado,96.62,172.37,115.67,181.44,469.47,Single-ply,SBD,M
Boys,99.79,7,Kenny DeLeon,Venus,95.62,165.56,79.38,158.76,403.7,Single-ply,SBD,M
Boys,99.79,8,Tom Kyle,Salado,90.9,138.35,81.65,117.93,337.93,Single-ply,SBD,M
Boys,109.77,1,Alex Wallace,Burnet,106.96,272.16,129.27,254.01,655.44,Single-ply,SBD,M
Boys,109.77,2,Caleb Hayslip,Salado,109.77,226.8,151.95,242.67,621.42,Single-ply,SBD,M
Boys,109.77,3,Travis Applequist,Florence,108.68,231.33,129.27,231.33,591.94,Single-ply,SBD,M
Boys,109.77,4,Matthew Andrews,Jarrell,103.33,204.12,131.54,195.04,530.7,Single-ply,SBD,M
Boys,109.77,5,Richard Ginsberg,Burnet,105.96,195.04,138.35,183.7,517.1,Single-ply,SBD,M
Boys,109.77,6,Dillon Gilmore,Little River Academy,108.05,185.97,122.47,208.65,517.1,Single-ply,SBD,M
Boys,109.77,7,Steven Johns,Jarrell,105.23,170.1,111.13,197.31,478.54,Single-ply,SBD,M
Boys,109.77,8,James Paniagua,Jarrell,109.23,174.63,113.4,174.63,462.66,Single-ply,SBD,M
Boys,109.77,9,Bobby Golding,Salado,105.69,174.63,106.59,174.63,455.86,Single-ply,SBD,M
Boys,109.77,10,Walker Hargrove,Venus,109.77,181.44,108.86,158.76,449.06,Single-ply,SBD,M
Boys,109.77,11,Keith Orcutt,Little River Academy,106.78,147.42,83.91,147.42,378.75,Single-ply,SBD,M
Boys,109.77,12,Dakota Larson,Venus,109.13,136.08,90.72,140.61,367.41,Single-ply,SBD,M
Boys,109.77,13,Omar Cardoso,Waco Reicher Catholic,105.6,,77.11,154.22,231.33,Single-ply,BD,M
Boys,109.77,DQ,Justin Dvorsky,Waco Reicher Catholic,104.05,176.9,,,,Single-ply,SBD,M
Boys,109.77,DQ,Josh Mafnas,Florence,109.77,,,,,Single-ply,BD,M
Boys,124.74,1,Will Dryer,Clifton,115.58,249.48,172.37,258.55,680.39,Single-ply,SBD,M
Boys,124.74,2,Luis Robles,Florence,123.74,226.8,117.93,181.44,526.17,Single-ply,SBD,M
Boys,124.74,3,Jamie Nesson,Burnet,114.21,142.88,88.45,161.03,392.36,Single-ply,SBD,M
Boys,124.74,4,Cody Champlin,Florence,122.56,142.88,86.18,127.01,356.07,Single-ply,SBD,M
Boys,124.74+,1,Ryan Turpin,Rosebud-Lott,156.49,136.08,113.4,176.9,426.38,Single-ply,SBD,M
Boys,124.74+,2,Freddy Johnson,Rosebud-Lott,132.18,158.76,86.18,163.29,408.23,Single-ply,SBD,M
Boys,124.74+,DQ,Dalton Terry,Little River Academy,127.01,,,,,Single-ply,SBD,M
