Place,Sex,Name,Event,Division,WeightClassKg,Equipment,BodyweightKg,Squat1Kg,Squat2Kg,Squat3Kg,Best3SquatKg,Bench1Kg,Bench2Kg,Bench3Kg,Best3BenchKg,Deadlift1Kg,Deadlift2Kg,Deadlift3Kg,Best3DeadliftKg,TotalKg,BirthYear
1,M,Dalton Jones,SBD,MR-T2,59,Raw,58.2,92.5,-102.5,107.5,107.5,85,92.5,-95,92.5,107.5,130,142.5,142.5,342.5,1999
1,M,Blake Fegler,SBD,MR-T2,66,Raw,60.9,97.5,-107.5,117.5,117.5,65,75,-82.5,75.0,117.5,137.5,147.5,147.5,340,1998
1,M,Alex Macilravie,SBD,MR-T2,105,Raw,93.7,82.5,92.5,102.5,102.5,45,57.5,-65,57.5,102.5,125,145,145.0,305,
1,M,Joe Ault,SBD,MR-T3,83,Raw,79.7,145,152.5,167.5,167.5,132.5,-142.5,142.5,142.5,185,192.5,-207.5,192.5,502.5,1996
1,M,Andrew Bressler,SBD,MR-T3,120,Raw,118.3,185,197.5,210,210.0,137.5,150,162.5,162.5,237.5,-255,255,255.0,627.5,1996
1,M,Max Von Gunten,SBD,M-T1,66,Single-ply,65.9,97.5,105,110,110.0,52.5,-57.5,-60,52.5,145,160,175,175.0,337.5,2000
1,M,Taylor Maese,SBD,M-T1,74,Single-ply,70,137.5,142.5,147.5,147.5,82.5,85,87.5,87.5,142.5,152.5,162.5,162.5,397.5,1999
1,M,Kolbe Chavez,SBD,M-T2,74,Single-ply,73.8,-145,-150,150,150.0,102.5,110,-117.5,110.0,185,192.5,-202.5,192.5,452.5,1998
1,M,Kyle Bacon,SBD,M-T2,120,Single-ply,114,165,170,180,180.0,120,125,130,130.0,197.5,202.5,215,215.0,525,1990
1,M,Steven Williams #1,SBD,M-T3,93,Single-ply,91.4,160,175,190,190.0,100,107.5,-115,107.5,227.5,237.5,250,250.0,547.5,1996
1,M,Brody Arross,SBD,M-T3,120,Single-ply,117.6,212.5,215,222.5,222.5,125,130,-137.5,130.0,172.5,187.5,-215,187.5,540,1997
1,M,Drew Diedrich,SBD,MR-Jr,83,Raw,82.8,172.5,182.5,195,195.0,125,-137.5,-137.5,125.0,182.5,207.5,220,220.0,540,1994
2,M,Spencer Moody,SBD,MR-Jr,83,Raw,78.1,157.5,167.5,-170,167.5,102.5,-110,-110,102.5,165,182.5,-190,182.5,452.5,1995
1,M,Graham Barlow,SBD,MR-Jr,93,Raw,92.3,192.5,215,232.5,232.5,152.5,165,-172.5,165.0,265,277.5,285,285.0,682.5,1995
1,M,Donjour McIntosh,SBD,MR-Jr,105,Raw,103,222.5,240,250,250.0,140,150,155,155.0,247.5,270,-287.5,270.0,675,1994
1,M,James Leonhardt,SBD,M-O,74,Single-ply,73.5,175,-185,-185,175.0,132.5,-145,-145,132.5,170,182.5,192.5,192.5,500,1978
1,M,Derek Lang,SBD,M-O,120,Single-ply,109.2,272.5,290,300,300.0,195,210,-227.5,210.0,282.5,-300,-300,282.5,792.5,1985
1,M,Colton Weeg,SBD,MR-O,74,Raw,72.9,127.5,145,-150,145.0,102.5,107.5,-112.5,107.5,170,185,187.5,187.5,440,1988
1,M,Cameron Turner,SBD,MR-O,83,Raw,81,170,182.5,187.5,187.5,117.5,125,132.5,132.5,182.5,197.5,215,215.0,535,
2,M,Shane Graveman,SBD,MR-O,83,Raw,81.8,157.5,-160,162.5,162.5,102.5,107.5,110,110.0,182.5,-205,205,205.0,477.5,1976
3,M,Johnathan Nichelson,SBD,MR-O,83,Raw,77.6,-160,160,170,170.0,85,95,-105,95.0,175,190,205,205.0,470,
1,M,Graham Barlow,SBD,MR-O,93,Raw,92.3,192.5,215,232.5,232.5,152.5,165,-172.5,165.0,265,277.5,285,285.0,682.5,1995
2,M,Shawn Gallagher,SBD,MR-O,93,Raw,92.2,205,-227.5,227.5,227.5,145,150,-155,150.0,265,-275,-275,265.0,642.5,1985
3,M,Ken Christianson,SBD,MR-O,93,Raw,89,157.5,-182.5,-182.5,157.5,105,112.5,120,120.0,202.5,222.5,235,235.0,512.5,1981
1,M,Seaver McRae,SBD,MR-O,105,Raw,99.5,175,-185,190,190.0,147.5,155,-162.5,155.0,212.5,240,-250,240.0,585,1987
2,M,Alonzo Sandoval,SBD,MR-O,105,Raw,99.8,162.5,177.5,182.5,182.5,115,130,-137.5,130.0,187.5,215,-220,215.0,527.5,1989
3,M,Travis Anderson,SBD,MR-O,105,Raw,101.3,165,172.5,-182.5,172.5,120,127.5,-135,127.5,175,187.5,195,195.0,495,1982
DQ,M,Eddie Argumedo,SBD,MR-O,105,Raw,105,-155,-155,-155,,205,210,-215,210.0,-155,-155,-155,,,1972
1,M,Trevor Teppo,SBD,MR-O,120,Raw,115.1,230,242.5,-250,242.5,162.5,-165,-165,162.5,250,272.5,-282.5,272.5,677.5,1988
2,M,David Wolf,SBD,MR-O,120,Raw,117.7,160,167.5,172.5,172.5,120,127.5,132.5,132.5,185,195,205,205.0,510,1954
DQ,M,Eric Allison,SBD,MR-O,120,Raw,118.1,-152.5,160,170,170.0,165,-170,-170,165.0,-142.5,-180,-180,,,1983
1,M,Lucas Bonefield,SBD,MR-O,120+,Raw,147.2,-285,287.5,-300,287.5,175,182.5,-187.5,182.5,292.5,302.5,310,310.0,780,1983
2,M,Casey Sullivan,SBD,MR-O,120+,Raw,141.8,265,297.5,-310,297.5,145,-157.5,-157.5,145.0,242.5,267.5,285,285.0,727.5,1990
3,M,Cody Smith,SBD,MR-O,120+,Raw,125.4,155,170,182.5,182.5,137.5,145,-155,145.0,190,215,-227.5,215.0,542.5,1990
DQ,M,Eddie Argumedo,SBD,MR-M1a,105,Raw,105,-155,-155,-155,,205,210,-215,210.0,-155,-155,-155,,,1972
1,M,Steve Hill,SBD,M-M3b,66,Single-ply,64.6,95,105,115,115.0,67.5,72.5,-75,72.5,115,137.5,-150,137.5,325,1950
1,M,Jon Stowers,SBD,MR-M2b,83,Raw,82.1,62.5,-85,90,90.0,62.5,85,-95,85.0,147.5,-155,-155,147.5,322.5,1961
1,M,David Wolf,SBD,MR-M3a,120,Raw,117.7,160,167.5,172.5,172.5,120,127.5,132.5,132.5,185,195,205,205.0,510,1954
1,F,Kourtney Tarango,SBD,F-T2,63,Single-ply,59.6,117.5,122.5,-127.5,122.5,-52.5,55,57.5,57.5,107.5,115,-120,115.0,295,1998
1,F,Tracy Payne,SBD,F-T2,84,Single-ply,73.6,107.5,-117.5,-117.5,107.5,57.5,60,-65,60.0,127.5,132.5,-150,132.5,300,1998
1,F,Megan Baumeister,SBD,FR-Jr,72,Raw,67.1,110,-120,-120,110.0,72.5,-77.5,-77.5,72.5,140,145,-152.5,145.0,327.5,
1,F,Smith Jennifer,SBD,FR-Jr,84+,Raw,132.9,-102.5,120,130,130.0,-60,65,75,75.0,125,-142.5,-145,125.0,330,1970
1,F,Shelby Stricklin,SBD,F-Y1,35,Single-ply,34,50,52.5,-55,52.5,25,27.5,-30,27.5,55,60,-67.5,60.0,140,2006
1,F,Gabby McVay,SBD,F-Y2,47,Single-ply,45.6,30,-40,-47.5,30.0,25,30,-32.5,30.0,35,57.5,62.5,62.5,122.5,
1,F,Jessica Hopkins #2,SBD,FR-O,57,Raw,54.9,65,72.5,80,80.0,60,65,67.5,67.5,82.5,92.5,102.5,102.5,250,1978
1,F,Bekah Gasner,SBD,FR-O,72,Raw,71.8,92.5,100,-107.5,100.0,-50,55,-60,55.0,132.5,142.5,150,150.0,305,1987
2,F,Emily Bybee,SBD,FR-O,72,Raw,68.5,92.5,102.5,-112.5,102.5,67.5,-72.5,72.5,72.5,110,115,-125,115.0,290,1982
1,F,Sunni Linse,SBD,FR-O,84,Raw,73.7,110,120,127.5,127.5,85,90,-92.5,90.0,160,167.5,-172.5,167.5,385,1982
2,F,Beth McVay,SBD,FR-O,84,Raw,76.3,60,72.5,-85,72.5,72.5,85,-92.5,85.0,-92.5,110,127.5,127.5,285,1979
1,F,Sarah Rhoden,SBD,FR-O,84+,Raw,95.5,82.5,-102.5,-107.5,82.5,67.5,75,-80,75.0,112.5,132.5,142.5,142.5,300,1979
1,F,Linda Park,SBD,F-M2a,84+,Single-ply,108.4,-75,82.5,-92.5,82.5,57.5,60,-62.5,60.0,85,97.5,105,105.0,247.5,1965
2,M,Joe Ault,B,MR-T3,83,Raw,79.7,,,,,132.5,-142.5,142.5,142.5,,,,,142.5,1996
4,M,Eddie Argumedo,B,MR-O,105,Raw,105,,,,,205,210,-215,210.0,,,,,210,1972
3,M,Lorenzo Peterson,B,MR-O,120,Raw,108.3,,,,,157.5,167.5,182.5,182.5,,,,,182.5,1981
4,M,Eric Allison,B,MR-O,120,Raw,118.1,,,,,165,-170,-170,165.0,,,,,165,1983
1,M,Eddie Argumedo,B,MR-M1a,105,Raw,105,,,,,205,210,-215,210.0,,,,,210,1972
2,F,Jessica Hopkins #2,B,FR-O,57,Raw,54.9,,,,,60,65,67.5,67.5,,,,,67.5,1978
2,F,Linda Park,B,F-M2a,84+,Single-ply,108.4,,,,,57.5,60,-62.5,60.0,,,,,60,1965
1,F,Rhonda Officer,B,FR-M2b,57,Raw,55.2,,,,,52.5,-55,-55,52.5,,,,,52.5,1960
DD,M,Sean Clymer,SBD,M-O,105,Single-ply,100.7,-297.5,-315,-327.5,,-142.5,-157.5,-170,,-287.5,-287.5,-307.5,,,
