Division,WeightClassKg,Place,Name,Team,BodyweightKg,Best3SquatKg,Best3BenchKg,Best3DeadliftKg,TotalKg,Equipment,Event,Sex,BirthDate
Boys,51.71,1,Peyton Way,Lago Vista,51.35,88.45,52.16,115.67,256.28,Single-ply,SBD,M,
Boys,51.71,2,Cole Barr,Hico,45.81,81.65,52.16,108.86,242.67,Single-ply,SBD,M,
Boys,55.79,1,Luke Keller,Llano,55.66,142.88,79.38,142.88,365.14,Single-ply,SBD,M,
Boys,55.79,2,Jose Rodriguez #13,Burnet,55.75,124.74,72.57,151.95,349.27,Single-ply,SBD,M,
Boys,55.79,3,Nathan Jeter,Rockdale,52.39,122.47,70.31,136.08,328.85,Single-ply,SBD,M,
Boys,55.79,4,Johnathan Strickland,Lampasas,55.38,113.4,63.5,147.42,324.32,Single-ply,SBD,M,
Boys,55.79,5,Enrique Reyes,Marble Falls,53.71,131.54,61.23,129.27,322.05,Single-ply,SBD,M,
Boys,55.79,6,Sean Murphy,Hico,52.62,106.59,52.16,127.01,285.76,Single-ply,SBD,M,
Boys,55.79,7,Sam See,Brownwood,55.11,106.59,68.04,106.59,281.23,Single-ply,SBD,M,
Boys,55.79,8,Jasael Ruiz,Marble Falls,54.16,106.59,52.16,108.86,267.62,Single-ply,SBD,M,
Boys,55.79,9,Jarred Sierra,Marble Falls,54.11,88.45,70.31,99.79,258.55,Single-ply,SBD,M,
Boys,55.79,10,David Villalpando,Hico,55.75,79.38,52.16,124.74,256.28,Single-ply,SBD,M,
Boys,55.79,11,Tyler Anglin,Bangs,54.52,74.84,88.45,90.72,254.01,Single-ply,SBD,M,
Boys,59.87,1,Damien Santillianes,Bangs,59.6,151.95,92.99,172.37,417.3,Single-ply,SBD,M,
Boys,59.87,2,Bryan Silva,Burnet,59.47,151.95,92.99,161.03,405.97,Single-ply,SBD,M,
Boys,59.87,3,Caden Young,Rockdale,59.83,127.01,81.65,129.27,337.93,Single-ply,SBD,M,
Boys,59.87,4,Brennan Vollmer,Fredericksburg,59.51,86.18,65.77,108.86,260.82,Single-ply,SBD,M,
Boys,67.13,1,Anthony Seider,Lometa,65.23,172.37,95.25,190.51,458.13,Single-ply,SBD,M,
Boys,67.13,2,Trevor Lorah,Bangs,67.13,167.83,102.06,163.29,433.18,Single-ply,SBD,M,
Boys,67.13,3,Uriah King,Brownwood,65.14,145.15,106.59,142.88,394.63,Single-ply,SBD,M,
Boys,67.13,4,Ryan Medrano,Brady,61.14,129.27,74.84,165.56,369.68,Single-ply,SBD,M,
Boys,67.13,5,Keshawn McElwain,Lampasas,62.14,127.01,92.99,142.88,362.87,Single-ply,SBD,M,
Boys,67.13,6,Brandon Sission,Bangs,60.42,124.74,83.91,151.95,360.61,Single-ply,SBD,M,
Boys,67.13,7,Bryce Flowers,Rockdale,65.09,127.01,83.91,147.42,358.34,Single-ply,SBD,M,
Boys,67.13,8,Jonathan Hatfield,Burnet,62.91,133.81,74.84,142.88,351.53,Single-ply,SBD,M,
Boys,67.13,9,Lorenzo Garcia,Fredericksburg,63.41,111.13,83.91,156.49,351.53,Single-ply,SBD,M,
Boys,67.13,10,Kevin Liu,Rockdale,60.33,131.54,77.11,140.61,349.27,Single-ply,SBD,M,
Boys,67.13,11,Kason Raub,Lampasas,64.91,129.27,92.99,120.2,342.46,Single-ply,SBD,M,
Boys,67.13,12,Tobey Yeats,Brownwood,65.09,120.2,83.91,136.08,340.19,Single-ply,SBD,M,
Boys,67.13,13,Reese Polk,Hico,65.68,124.74,61.23,138.35,324.32,Single-ply,SBD,M,
Boys,67.13,14,James Bowling,Marble Falls,64.23,115.67,81.65,124.74,322.05,Single-ply,SBD,M,
Boys,67.13,DQ,Gunner Ivey,Llano,64.09,115.67,,,,Single-ply,SBD,M,
Boys,74.84,1,Jack Jerome,Lampasas,73.98,235.87,138.35,204.12,578.33,Single-ply,SBD,M,
Boys,74.84,2,William O'Dell,Brownwood,73.3,142.88,108.86,149.69,401.43,Single-ply,SBD,M,
Boys,74.84,3,Kaden Bessent,Brownwood,70.94,151.95,92.99,154.22,399.16,Single-ply,SBD,M,
Boys,74.84,4,Abel Prince,Llano,69.76,158.76,72.57,165.56,396.89,Single-ply,SBD,M,
Boys,74.84,5,Jackson Huff,Brownwood,67.68,131.54,83.91,149.69,365.14,Single-ply,SBD,M,
Boys,74.84,6,Louis Castro,Lampasas,70.94,127.01,83.91,136.08,347,Single-ply,SBD,M,
Boys,74.84,7,Cameron Hunter,Lampasas,68.4,127.01,86.18,124.74,337.93,Single-ply,SBD,M,
Boys,74.84,8,Chris Robinson #8,Brownwood,72.48,113.4,65.77,106.59,285.76,Single-ply,SBD,M,
Boys,74.84,9,Jaiden Estes,Brady,71.44,104.33,63.5,106.59,274.42,Single-ply,SBD,M,
Boys,74.84,DQ,Andrew Burns,Fredericksburg,67.68,,,,,Single-ply,SBD,M,
Boys,82.1,1,Case Brister,Lampasas,79.83,226.8,124.74,217.72,569.26,Single-ply,SBD,M,
Boys,82.1,2,Cameron Everts,Lampasas,80.92,213.19,140.61,215.46,569.26,Single-ply,SBD,M,
Boys,82.1,3,Weston Reid,Lampasas,82.1,210.92,117.93,213.19,542.04,Single-ply,SBD,M,
Boys,82.1,4,Joe Maldonado,Marble Falls,81.87,215.46,115.67,201.85,532.97,Single-ply,SBD,M,
Boys,82.1,5,Hunter Metzger,Fredericksburg,79.61,183.7,136.08,201.85,521.63,Single-ply,SBD,M,
Boys,82.1,6,Colby Henry,Lometa,76.11,190.51,138.35,190.51,519.36,Single-ply,SBD,M,
Boys,82.1,7,Grisham Pun,Burnet,81.47,210.92,115.67,192.78,519.36,Single-ply,SBD,M,
Boys,82.1,8,Ruben Reyes,Stephenville,78.93,174.63,113.4,197.31,485.34,Single-ply,SBD,M,
Boys,82.1,9,Gavin French,Fredericksburg,78.06,185.97,102.06,190.51,478.54,Single-ply,SBD,M,
Boys,82.1,10,Cade Ligon,Llano,80.88,183.7,97.52,183.7,464.93,Single-ply,SBD,M,
Boys,82.1,11,Austin Simpson,Fredericksburg,78.02,165.56,108.86,185.97,460.4,Single-ply,SBD,M,
Boys,82.1,12,Aden Rascoe,Lampasas,82.01,167.83,108.86,167.83,444.52,Single-ply,SBD,M,
Boys,82.1,13,Voice Tuttle,Marble Falls,81.92,163.29,102.06,170.1,435.45,Single-ply,SBD,M,
Boys,82.1,14,Jd Ibarra,Brady,76.79,142.88,88.45,174.63,405.97,Single-ply,SBD,M,
Boys,82.1,15,Adrian Medrano,Brady,81.06,158.76,88.45,156.49,403.7,Single-ply,SBD,M,
Boys,82.1,16,Isaac Reyes,Lometa,76.57,147.42,99.79,151.95,399.16,Single-ply,SBD,M,
Boys,82.1,17,Ricky Resendiz,Lago Vista,82.1,117.93,65.77,131.54,315.25,Single-ply,SBD,M,
Boys,82.1,DQ,Isaiah Tarr,Brady,78.15,,,,,Single-ply,SBD,M,
Boys,82.1,DQ,Brenden Taylor,Hico,80.92,161.03,,,,Single-ply,SBD,M,
Boys,89.81,1,Logan Duggar,Llano,84.64,238.14,115.67,226.8,580.6,Single-ply,SBD,M,
Boys,89.81,2,Daunte Cuffie,Lampasas,82.46,204.12,151.95,210.92,566.99,Single-ply,SBD,M,
Boys,89.81,3,James Hogan,Lampasas,87.32,195.04,129.27,204.12,528.44,Single-ply,SBD,M,
Boys,89.81,4,Keagan Richardson,Lampasas,85.32,188.24,122.47,201.85,512.56,Single-ply,SBD,M,
Boys,89.81,5,Daniel Morgan,Brady,89.72,183.7,111.13,183.7,478.54,Single-ply,SBD,M,
Boys,89.81,6,Jose Tonche,Marble Falls,85.18,167.83,97.52,161.03,426.38,Single-ply,SBD,M,
Boys,89.81,7,Avery Smith,Lampasas,89.31,149.69,102.06,172.37,424.11,Single-ply,SBD,M,
Boys,89.81,8,Jacob Honea,Lago Vista,88.18,138.35,99.79,158.76,396.89,Single-ply,SBD,M,
Boys,89.81,9,Tyler Minshew,Lampasas,84.69,122.47,74.84,136.08,333.39,Single-ply,SBD,M,
Boys,89.81,10,Dalton Enberg,Llano,88.18,117.93,63.5,136.08,317.51,Single-ply,SBD,M,
Boys,89.81,DQ,Jacob Maldonado,Marble Falls,89.13,219.99,,,,Single-ply,SBD,M,
Boys,89.81,DQ,Ian McKinney,Lampasas,88.18,199.58,,,,Single-ply,SBD,M,
Boys,89.81,DQ,Alan Cardenas,Lago Vista,84.28,,,,,Single-ply,SBD,M,
Boys,89.81,DQ,Zane Gillaspia,Brady,84.78,158.76,,,,Single-ply,SBD,M,
Boys,99.79,1,Gabriel Perez,Marble Falls,92.67,213.19,142.88,217.72,573.79,Single-ply,SBD,M,
Boys,99.79,2,Gabriel Barker,Marble Falls,94.98,215.46,136.08,217.72,569.26,Single-ply,SBD,M,
Boys,99.79,3,Caleb Smith,Stephenville,90.81,197.31,145.15,213.19,555.65,Single-ply,SBD,M,
Boys,99.79,4,Everett Borton,Fredericksburg,94.62,204.12,124.74,190.51,519.36,Single-ply,SBD,M,
Boys,99.79,5,Adrian Lopez #6,Burnet,99.7,197.31,120.2,192.78,510.29,Single-ply,SBD,M,
Boys,99.79,6,Ethan Pesina,Brownwood,99.79,192.78,124.74,181.44,498.95,Single-ply,SBD,M,
Boys,99.79,7,Gabe Quarez,Stephenville,96.57,188.24,108.86,199.58,496.68,Single-ply,SBD,M,
Boys,99.79,8,Jose Vasquez,Marble Falls,97.34,172.37,108.86,192.78,474,Single-ply,SBD,M,
Boys,99.79,9,Caleb Brady,Lampasas,99.47,190.51,113.4,170.1,474,Single-ply,SBD,M,
Boys,99.79,10,Alex DeLeon,Stephenville,90.26,176.9,113.4,181.44,471.74,Single-ply,SBD,M,
Boys,99.79,11,Zach Chavvaria,Stephenville,93.49,170.1,102.06,183.7,455.86,Single-ply,SBD,M,
Boys,99.79,12,Jose Lopez,Burnet,98.16,142.88,92.99,201.85,437.72,Single-ply,SBD,M,
Boys,99.79,13,Sokimi Sosa,Lampasas,99.52,183.7,102.06,151.95,437.72,Single-ply,SBD,M,
Boys,99.79,14,Cameron Brack,Lampasas,98.11,154.22,102.06,149.69,405.97,Single-ply,SBD,M,
Boys,99.79,15,Daniel Gardiner,Rockdale,99.02,140.61,92.99,170.1,403.7,Single-ply,SBD,M,
Boys,99.79,16,Brennen Fuhrman,Lago Vista,91.63,136.08,90.72,149.69,376.48,Single-ply,SBD,M,
Boys,99.79,17,Willam Davenport,Rockdale,98.2,108.86,77.11,129.27,315.25,Single-ply,SBD,M,
Boys,99.79,18,Landon Pounders,Rockdale,90.54,106.59,63.5,127.01,297.1,Single-ply,SBD,M,
Boys,109.77,1,Damon McClary,Hico,109.27,249.48,124.74,201.85,576.06,Single-ply,SBD,M,
Boys,109.77,2,Owen Seaver,Lampasas,103.92,199.58,163.29,192.78,555.65,Single-ply,SBD,M,
Boys,109.77,3,Matthew Whitley,Llano,104.69,197.31,140.61,190.51,528.44,Single-ply,SBD,M,
Boys,109.77,4,Alex Ellison,Rockdale,105.96,185.97,127.01,174.63,487.61,Single-ply,SBD,M,
Boys,109.77,5,Alex Reyna,Brownwood,109.36,192.78,111.13,181.44,485.34,Single-ply,SBD,M,
Boys,109.77,6,Logan Itara,Lago Vista,101.97,195.04,95.25,179.17,469.47,Single-ply,SBD,M,
Boys,109.77,7,Mason Butchee,Stephenville,105.6,161.03,138.35,151.95,451.32,Single-ply,SBD,M,
Boys,109.77,8,Damian Meza,Stephenville,104.37,165.56,92.99,174.63,433.18,Single-ply,SBD,M,
Boys,109.77,9,Dax Lawhon,Lago Vista,102.92,163.29,102.06,142.88,408.23,Single-ply,SBD,M,
Boys,109.77,10,Connor Keele,Lampasas,109.32,145.15,83.91,172.37,401.43,Single-ply,SBD,M,
Boys,109.77,11,Dj Powell,Brady,104.01,129.27,92.99,136.08,358.34,Single-ply,SBD,M,
Boys,109.77,DQ,Ethan Harris,Lago Vista,107.77,204.12,,,,Single-ply,SBD,M,
Boys,124.74,1,Brad Robinson,Brownwood,112.94,238.14,131.54,204.12,573.79,Single-ply,SBD,M,
Boys,124.74,2,Cristian Avilez,Fredericksburg,114.53,215.46,149.69,199.58,564.72,Single-ply,SBD,M,
Boys,124.74,3,Landon West,Fredericksburg,121.43,208.65,117.93,229.06,555.65,Single-ply,SBD,M,
Boys,124.74,4,Gavin Aguilar,Rockdale,111.77,204.12,142.88,197.31,544.31,Single-ply,SBD,M,
Boys,124.74,5,Zachary Wubbolding,Fredericksburg,117.12,213.19,145.15,183.7,542.04,Single-ply,SBD,M,
Boys,124.74,6,Hayden Henry,Burnet,111.18,219.99,111.13,192.78,523.9,Single-ply,SBD,M,
Boys,124.74,7,Aaron Avila,Rockdale,113.35,238.14,117.93,163.29,519.36,Single-ply,SBD,M,
Boys,124.74,8,Caden Melton,Lampasas,120.2,192.78,131.54,161.03,485.34,Single-ply,SBD,M,
Boys,124.74,9,Adrian Montano,Stephenville,117.21,190.51,115.67,174.63,480.81,Single-ply,SBD,M,
Boys,124.74,10,Jimi Brown,Brownwood,118.43,174.63,129.27,176.9,480.81,Single-ply,SBD,M,
Boys,124.74,11,Rafae Medina,Lago Vista,118.12,185.97,102.06,167.83,455.86,Single-ply,SBD,M,
Boys,124.74,12,Austin Goodman,Rockdale,113.9,124.74,74.84,122.47,322.05,Single-ply,SBD,M,
Boys,124.74+,1,John Long,Lampasas,129.32,226.8,167.83,210.92,605.55,Single-ply,SBD,M,
Boys,124.74+,2,Travis Cates,Fredericksburg,128.46,204.12,158.76,197.31,560.19,Single-ply,SBD,M,
Boys,124.74+,3,Logan Davis,Stephenville,130.86,204.12,140.61,215.46,560.19,Single-ply,SBD,M,
Boys,124.74+,4,Caden Thrift,Lampasas,150.18,183.7,142.88,190.51,517.1,Single-ply,SBD,M,
Boys,124.74+,5,Gavin Sharp,Stephenville,138.53,183.7,129.27,192.78,505.76,Single-ply,SBD,M,
Boys,124.74+,6,Jaime Palacios,Burnet,144.24,172.37,122.47,210.92,505.76,Single-ply,SBD,M,
Boys,124.74+,7,Matthew Cerda,Stephenville,133.99,195.04,117.93,183.7,496.68,Single-ply,SBD,M,
