Division,WeightClassKg,Place,Name,Team,BodyweightKg,Best3SquatKg,Best3BenchKg,Best3DeadliftKg,TotalKg,Equipment,Event,Sex
Boys,51.71,1,Adrian Ballew,Clute Brazoswood,51.26,124.74,74.84,127.01,326.59,Single-ply,SBD,M
Boys,51.71,2,Alex Salto,Manvel,46.81,61.23,47.63,90.72,199.58,Single-ply,SBD,M
Boys,55.79,1,Austin Draper,East Bernard,53.98,122.47,63.5,127.01,312.98,Single-ply,SBD,M
Boys,55.79,2,Trey Steffens,East Bernard,54.52,113.4,65.77,111.13,290.3,Single-ply,SBD,M
Boys,55.79,3,Lorenzo Garza,Freeport Brazosport,55.79,102.06,65.77,115.67,283.5,Single-ply,SBD,M
Boys,55.79,4,Carlos Harian,Manvel,54.25,86.18,52.16,102.06,240.4,Single-ply,SBD,M
Boys,59.87,1,Richie Garza,West Columbia,59.87,158.76,102.06,179.17,439.98,Single-ply,SBD,M
Boys,59.87,2,Armando Cabriales,Clute Brazoswood,59.15,167.83,97.52,170.1,435.45,Single-ply,SBD,M
Boys,59.87,3,Kameron Matthews,East Bernard,58.79,131.54,74.84,138.35,344.73,Single-ply,SBD,M
Boys,59.87,4,Bryan Lara,Alvin Shadow Creek,58.79,113.4,72.57,151.95,337.93,Single-ply,SBD,M
Boys,59.87,5,D'Orean Steamer,Freeport Brazosport,57.88,113.4,72.57,136.08,322.05,Single-ply,SBD,M
Boys,59.87,6,Michael Oneil,Freeport Brazosport,59.24,102.06,61.23,111.13,274.42,Single-ply,SBD,M
Boys,67.13,1,Elias Arcia,Sweeny,63.78,165.56,127.01,170.1,462.66,Single-ply,SBD,M
Boys,67.13,2,Niklas Schatz,East Bernard,66.68,163.29,79.38,176.9,419.57,Single-ply,SBD,M
Boys,67.13,3,Richard Salazar,West Columbia,65.59,154.22,97.52,161.03,412.77,Single-ply,SBD,M
Boys,67.13,4,Marges Regie,Alvin Shadow Creek,66.95,142.88,79.38,185.97,408.23,Single-ply,SBD,M
Boys,67.13,5,Marco Sanchez,Hitchcock,61.23,149.69,74.84,158.76,383.29,Single-ply,SBD,M
Boys,67.13,6,Jacob Rainer,Alvin Shadow Creek,64.68,136.08,83.91,163.29,383.29,Single-ply,SBD,M
Boys,67.13,7,Nathaniel Neely,Clute Brazoswood,62.87,138.35,86.18,142.88,367.41,Single-ply,SBD,M
Boys,67.13,8,Shane Thompson,Stafford,64.5,129.27,83.91,147.42,360.61,Single-ply,SBD,M
Boys,67.13,9,Luis Cantu,Clute Brazoswood,66.86,129.27,79.38,147.42,356.07,Single-ply,SBD,M
Boys,67.13,10,Brandon Connor,Hitchcock,63.59,120.2,54.43,136.08,310.71,Single-ply,SBD,M
Boys,,NS,Davin Preston,Hitchcock,,,,,,Single-ply,SBD,M
Boys,74.84,1,Mason Seay,Clute Brazoswood,73.26,195.04,111.13,226.8,532.97,Single-ply,SBD,M
Boys,74.84,2,Stephen Morales,Hitchcock,73.12,204.12,97.52,204.12,505.76,Single-ply,SBD,M
Boys,74.84,3,Pristine Hysten,Sweeny,74.84,195.04,111.13,185.97,492.15,Single-ply,SBD,M
Boys,74.84,4,Robert Martinez,West Columbia,67.59,170.1,102.06,174.63,446.79,Single-ply,SBD,M
Boys,74.84,5,Alex Villareal,Freeport Brazosport,74.12,176.9,102.06,165.56,444.52,Single-ply,SBD,M
Boys,74.84,6,Alberto Vasquez,Manvel,70.94,161.03,95.25,185.97,442.25,Single-ply,SBD,M
Boys,74.84,7,James Palma,Alvin Shadow Creek,72.67,163.29,95.25,183.7,442.25,Single-ply,SBD,M
Boys,74.84,8,Kelab Roberts,Stafford,70.13,151.95,106.59,176.9,435.45,Single-ply,SBD,M
Boys,74.84,9,Jarod Pearson,Clute Brazoswood,71.12,156.49,99.79,174.63,430.91,Single-ply,SBD,M
Boys,74.84,10,William Evans,Manvel,73.12,142.88,108.86,172.37,424.11,Single-ply,SBD,M
Boys,74.84,11,Xavier Carter,Manvel,73.94,147.42,90.72,172.37,410.5,Single-ply,SBD,M
Boys,74.84,12,Chris West,Clute Brazoswood,74.3,147.42,92.99,170.1,410.5,Single-ply,SBD,M
Boys,74.84,13,Fillipi Preston,Alvin Shadow Creek,71.94,124.74,108.86,165.56,399.16,Single-ply,SBD,M
Boys,74.84,14,Isiah Lorens,Stafford,74.03,147.42,106.59,145.15,399.16,Single-ply,SBD,M
Boys,74.84,15,Donte Noel,Manvel,68.86,111.13,86.18,163.29,360.61,Single-ply,SBD,M
Boys,,NS,Matt Fleming,Hitchcock,,,,,,Single-ply,SBD,M
Boys,82.1,1,Mario Vega,Clute Brazoswood,81.47,222.26,158.76,242.67,623.69,Single-ply,SBD,M
Boys,82.1,2,Jason Martinez,Alvin Shadow Creek,78.74,183.7,147.42,213.19,544.31,Single-ply,SBD,M
Boys,82.1,3,Hunter Goudeau,East Bernard,79.56,192.78,102.06,215.46,510.29,Single-ply,SBD,M
Boys,82.1,4,Logan Page,Sweeny,81.47,201.85,120.2,185.97,508.02,Single-ply,SBD,M
Boys,82.1,5,Micah Bumgarner,Hitchcock,81.92,197.31,113.4,188.24,498.95,Single-ply,SBD,M
Boys,82.1,6,Slade Bass,Sweeny,80.92,174.63,124.74,174.63,474,Single-ply,SBD,M
Boys,82.1,7,Sean Burns #1,Stafford,76.11,183.7,142.88,142.88,469.47,Single-ply,SBD,M
Boys,82.1,8,Sovanara Kuy,Alvin Shadow Creek,78.74,151.95,102.06,199.58,453.59,Single-ply,SBD,M
Boys,82.1,9,Ruel Hampton,Manvel,76.84,163.29,108.86,172.37,444.52,Single-ply,SBD,M
Boys,82.1,10,Ricardo Medina,Manvel,82.01,147.42,83.91,199.58,430.91,Single-ply,SBD,M
Boys,82.1,11,Osman Tabora,Alvin Shadow Creek,78.83,147.42,83.91,192.78,424.11,Single-ply,SBD,M
Boys,82.1,12,Cornell Brown,Freeport Brazosport,76.66,156.49,92.99,172.37,421.84,Single-ply,SBD,M
Boys,82.1,13,JaQuai Neal,Manvel,77.47,147.42,97.52,176.9,421.84,Single-ply,SBD,M
Boys,82.1,14,Tony Rotramel,Clute Brazoswood,82.1,158.76,92.99,158.76,410.5,Single-ply,SBD,M
Boys,82.1,15,LaMarkus Owens,Manvel,75.02,133.81,102.06,151.95,387.82,Single-ply,SBD,M
Boys,82.1,16,Avery Clark #1,Manvel,81.92,129.27,90.72,149.69,369.68,Single-ply,SBD,M
Boys,82.1,17,Jayson Peters,Alvin Shadow Creek,79.47,131.54,86.18,145.15,362.87,Single-ply,SBD,M
Boys,89.81,1,E'fabian Allen,Alvin Shadow Creek,88.9,208.65,124.74,190.51,523.9,Single-ply,SBD,M
Boys,89.81,2,Ben Sandoval,East Bernard,89.09,190.51,108.86,192.78,492.15,Single-ply,SBD,M
Boys,89.81,3,Ken Steward,Stafford,85.37,170.1,102.06,204.12,476.27,Single-ply,SBD,M
Boys,89.81,4,Juan Cuevas,West Columbia,85.09,158.76,97.52,163.29,419.57,Single-ply,SBD,M
Boys,89.81,5,DeMonte Seymore,Manvel,82.92,142.88,92.99,174.63,410.5,Single-ply,SBD,M
Boys,89.81,6,Tyler Norman,Hitchcock,86.36,142.88,72.57,149.69,365.14,Single-ply,SBD,M
Boys,89.81,7,Joshua Dia,Alvin Shadow Creek,88.99,97.52,92.99,142.88,333.39,Single-ply,SBD,M
Boys,99.79,1,Joey Avalos,Manvel,94.89,226.8,151.95,235.87,614.62,Single-ply,SBD,M
Boys,99.79,2,Brady Byrd,Sweeny,97.43,231.33,136.08,233.6,601.01,Single-ply,SBD,M
Boys,99.79,3,Ken Savanna,Stafford,94.17,206.38,151.95,210.92,569.26,Single-ply,SBD,M
Boys,99.79,4,Kody Gums,Stafford,96.8,201.85,131.54,226.8,560.19,Single-ply,SBD,M
Boys,99.79,5,Cj Calhoun,Freeport Brazosport,94.17,204.12,138.35,192.78,535.24,Single-ply,SBD,M
Boys,99.79,6,Chancellor Burford,Alvin Shadow Creek,93.62,124.74,111.13,197.31,433.18,Single-ply,SBD,M
Boys,99.79,7,Brandon Jackson,Alvin Shadow Creek,97.52,142.88,90.72,192.78,426.38,Single-ply,SBD,M
Boys,99.79,DQ,Lazaro Gutierrez,Hitchcock,91.99,124.74,,,,Single-ply,SBD,M
Boys,109.77,1,Nic Nail,Sweeny,106.5,204.12,158.76,233.6,596.47,Single-ply,SBD,M
Boys,109.77,2,Ethan George,Stafford,103.96,229.06,142.88,219.99,591.94,Single-ply,SBD,M
Boys,109.77,3,Kaleb Manning,Clute Brazoswood,107.68,226.8,147.42,215.46,589.67,Single-ply,SBD,M
Boys,109.77,4,Destin Schuler,East Bernard,104.96,213.19,129.27,222.26,564.72,Single-ply,SBD,M
Boys,109.77,5,Braden Davis,West Columbia,100.43,199.58,158.76,199.58,557.92,Single-ply,SBD,M
Boys,109.77,6,Reginald Freeman,Manvel,100.88,217.72,124.74,185.97,528.44,Single-ply,SBD,M
Boys,109.77,7,Ryan Hlavinka,East Bernard,101.88,204.12,117.93,192.78,514.83,Single-ply,SBD,M
Boys,109.77,8,Sebastian Carrier,Stafford,103.6,142.88,124.74,215.46,483.08,Single-ply,SBD,M
Boys,109.77,9,Devante Johnson,Alvin Shadow Creek,106.23,151.95,113.4,190.51,455.86,Single-ply,SBD,M
Boys,109.77,10,Robert Wooten,Stafford,102.06,163.29,136.08,129.27,428.64,Single-ply,SBD,M
Boys,109.77,11,Gary Sims,West Columbia,108.95,142.88,108.86,170.1,421.84,Single-ply,SBD,M
Boys,,NS,Cortez Martin,Alvin Shadow Creek,,,,,,Single-ply,SBD,M
Boys,124.74,1,Arman Chowdhurry,Sweeny,115.3,251.74,158.76,210.92,621.42,Single-ply,SBD,M
Boys,124.74,2,James Cobb,Sweeny,110.77,226.8,133.81,213.19,573.79,Single-ply,SBD,M
Boys,124.74,3,Alex Zavala,Clute Brazoswood,114.21,217.72,127.01,206.38,551.11,Single-ply,SBD,M
Boys,124.74,4,Cruz Soria,Freeport Brazosport,119.84,204.12,136.08,156.49,496.68,Single-ply,SBD,M
Boys,124.74,5,Christen Robinson,Manvel,119.84,174.63,106.59,197.31,478.54,Single-ply,SBD,M
Boys,124.74,6,Luis Rodriguez,Clute Brazoswood,113.13,190.51,113.4,167.83,471.74,Single-ply,SBD,M
Boys,124.74,7,Rafael Martinez,West Columbia,112.22,158.76,124.74,170.1,453.59,Single-ply,SBD,M
Boys,124.74,8,Dylan Hughes,Alvin Shadow Creek,114.94,165.56,102.06,183.7,451.32,Single-ply,SBD,M
Boys,,NS,Trevor Strother,Hitchcock,,,,,,Single-ply,SBD,M
Boys,124.74,DQ,Gavin Smith #3,Hitchcock,115.89,,,,,Single-ply,SBD,M
Boys,124.74+,1,Demarius Countee,Manvel,146.06,240.4,158.76,208.65,607.81,Single-ply,SBD,M
Boys,124.74+,2,Marcus Smith,Stafford,139.25,192.78,167.83,204.12,564.72,Single-ply,SBD,M
Boys,124.74+,3,Tim Green,Freeport Brazosport,158.85,222.26,113.4,206.38,542.04,Single-ply,SBD,M
Boys,124.74+,4,DeUndre Potts,Manvel,138.71,190.51,129.27,217.72,537.51,Single-ply,SBD,M
Boys,124.74+,5,Bennie Moore,Freeport Brazosport,145.24,204.12,120.2,208.65,532.97,Single-ply,SBD,M
Boys,124.74+,6,Christian Guevara,Freeport Brazosport,137.98,174.63,136.08,185.97,496.68,Single-ply,SBD,M
Boys,124.74+,7,Jacob Jiminez,Stafford,125.55,183.7,136.08,170.1,489.88,Single-ply,SBD,M
Boys,124.74+,8,Danny Santana,Alvin Shadow Creek,171,102.06,124.74,151.95,378.75,Single-ply,SBD,M
Boys,124.74+,DQ,Mikail Bryan,Hitchcock,140.66,188.24,,,,Single-ply,SBD,M
Boys,124.74+,DQ,Manny Galindo,Freeport Brazosport,147.24,,,,,Single-ply,SBD,M
