Name,Sex,Age,Division,WeightClassKg,Best3SquatKg,Best3BenchKg,Best3DeadliftKg,TotalKg,Event,Place,Equipment,Tested,Team
Jordan Masters,F,19,F_OR_AAPF,75,100,67.5,130,297.5,SBD,1,Raw,Yes,Hillbilly Power
Jordan Masters,F,19,F_TR_3_AAPF,75,100,67.5,130,297.5,SBD,1,Raw,Yes,Hillbilly Power
Shannon Thompson,F,21,F_JR_APF,67.5,102.5,57.5,122.5,282.5,SBD,1,Raw,,
Jordan Masters,F,19,F_OR_APF,75,100,67.5,130,297.5,SBD,1,Raw,,Hillbilly Power
Jordan Masters,F,19,F_TR_3_APF,75,100,67.5,130,297.5,SBD,1,Raw,,Hillbilly Power
Allen Masters,M,47,M_MR_2_AAPF,110,170,125,192.5,487.5,SBD,1,Raw,Yes,Hillbilly Power
Todd Scully,M,50,M_MEM_3_AAPF,125,240,157.5,240,637.5,SBD,1,Multi-ply,Yes,
Sean Sharkey,M,31,M_OEM_AAPF,100,237.5,152.5,255,645,SBD,1,Multi-ply,Yes,
Timothy Reardon,M,31,M_OEM_AAPF,100,190,137.5,70,397.5,SBD,2,Multi-ply,Yes,
Eric Poeltl,M,24,M_OR_AAPF,75,165,102.5,180,447.5,SBD,1,Raw,Yes,
Dalton Masters,M,16,M_OR_AAPF,110,220,150,252.5,622.5,SBD,1,Raw,Yes,Hillbilly Power
Dalton Masters,M,16,M_TR_2_AAPF,110,220,150,252.5,622.5,SBD,1,Raw,Yes,Hillbilly Power
Brandon Chapman,M,18,M_TR_3_AAPF,82.5,125,112.5,172.5,410,SBD,1,Raw,Yes,Hillbilly Power
Jacques Williams,M,20,M_JR_APF,100,265,205,272.5,742.5,SBD,1,Raw,,
John Kirkpatrick,M,42,M_MEM_1_APF,110,320,230,237.5,787.5,SBD,1,Multi-ply,,
Dan Marsee,M,40,M_MEM_1_APF,110,272.5,227.5,250,750,SBD,2,Multi-ply,,Hillbilly Power
Tom Mahoney,M,49,M_MEM_2_APF,140,347.5,190,292.5,830,SBD,1,Multi-ply,,
John Mulvey,M,46,M_MR_2_APF,100,137.5,130,190,457.5,SBD,1,Raw,,
Allen Masters,M,47,M_MR_2_APF,110,170,125,192.5,487.5,SBD,1,Raw,,Hillbilly Power
Robert Schmidt #1,M,50,M_MEM_3_APF,110,322.5,212.5,282.5,817.5,SBD,1,Multi-ply,,
Larry Grant,M,54,M_MEM_3_APF,125,330,237.5,272.5,840,SBD,1,Multi-ply,,
Dean Whitney,M,68,M_MEM_6_APF,75,215,87.5,207.5,510,SBD,1,Multi-ply,,
Earl Foran,M,84,M_MR_9_APF,75,75,87.5,112.5,275,SBD,1,Raw,,
Carson Randall,M,29,M_OEM_APF,90,320,240,262.5,822.5,SBD,1,Multi-ply,,
Greg Staruk,M,42,M_OEM_APF,125,337.5,245,267.5,850,SBD,1,Multi-ply,,
John O'Hara,M,22,M_OR_APF,82.5,215,170,237.5,622.5,SBD,1,Raw,,
Jordan Characo,M,20,M_OR_APF,90,215,180,250,645,SBD,1,Raw,,
Eric Wilson,M,28,M_OR_APF,90,230,147.5,252.5,630,SBD,2,Raw,,
Michael Pucci,M,26,M_OR_APF,90,235,162.5,215,612.5,SBD,3,Raw,,
Eddie Washington,M,32,M_OR_APF,90,147.5,122.5,160,430,SBD,4,Raw,,
Toby Cobaugh,M,32,M_OR_APF,100,272.5,190,265,727.5,SBD,1,Raw,,
Dalton Masters,M,16,M_OR_APF,110,220,150,252.5,622.5,SBD,1,Raw,,Hillbilly Power
Matt Smith #16,M,25,M_OR_APF,125,215,160,277.5,652.5,SBD,1,Raw,,
Mark Arroyo,M,35,M_SR_APF,82.5,145,97.5,165,407.5,SBD,1,Raw,,
Shane Hunt,M,15,M_TEM_1_APF,125,192.5,142.5,225,560,SBD,1,Multi-ply,,
Dalton Masters,M,16,M_TR_2_APF,110,220,150,252.5,622.5,SBD,1,Raw,,Hillbilly Power
Nathan Chambers Jr,M,17,M_TR_2_APF,100,145,112.5,175,432.5,SBD,1,Raw,,
Edna Lewis,F,67,F_MR_6_APF,82.5,,30,,30,B,1,Raw,,
Joe McDermott,M,72,M_MEM_7_AAPF,75,,137.5,,137.5,B,1,Multi-ply,Yes,
Richard Stotler,M,41,M_MEM_1_APF,100,,195,,195,B,1,Multi-ply,,
Tom Murphy #3,M,51,M_MR_3_APF,100,,167.5,,167.5,B,1,Raw,,
Dan Martin,M,56,M_MEM_4_APF,100,,182.5,,182.5,B,1,Multi-ply,,
Joe McDermott,M,72,M_MEM_7_APF,75,,137.5,,137.5,B,1,Multi-ply,,
Tom Newnam,M,68,M_MR_6_APF,75,,135,,135,B,1,Raw,,
Vito Lombardo,M,81,M_MR_9_APF,100,,92.5,,92.5,B,1,Raw,,
Justin Hope,M,33,M_OR_APF,75,,150,,150,B,1,Raw,,
Eddie Washington,M,32,M_OR_APF,90,,122.5,,122.5,B,1,Raw,,
Jason Moylan,M,33,M_OR_APF,100,,230,,230,B,1,Raw,,
Brandon Smith,M,32,M_OR_APF,110,,235,,235,B,1,Raw,,
Nic Moretto,M,28,M_OR_APF,125,,227.5,,227.5,B,1,Raw,,
Justin Hope,M,33,M_SR_APF,75,,150,,150,B,1,Raw,,
Jason Moylan,M,33,M_SR_APF,100,,230,,230,B,1,Raw,,
Tim Mangin,M,50,M_MR_3_AAPF,110,,,,,B,DQ,Raw,Yes,
Shawn O'Malley,M,50,M_MEM_3_APF,90,,,257.5,257.5,D,1,Multi-ply,,
Bob DePrez,M,63,M_MEM_5_APF,100,,,115,115,D,1,Multi-ply,,
William Roberts,M,70,M_MR_7_APF,110,,,137.5,137.5,D,1,Raw,,
Eddie Washington,M,32,M_OR_APF,90,,,160,160,D,1,Raw,,
Nic Moretto,M,28,M_OR_APF,125,,,332.5,332.5,D,1,Raw,,
Jason Pritchard #1,M,40,M_OEM_AAPF,82.5,,175,190,365,BD,1,Multi-ply,Yes,
Fletcher Gibbs,M,56,M_MEM_4_APF,125,,180,205,385,BD,1,Multi-ply,,
Nic Moretto,M,28,M_OR_APF,125,,227.5,332.5,560,BD,1,Raw,,
