Place,WeightClassKg,Name,CyrillicName,BirthDate,Division,BodyweightKg,Bench1Kg,Bench2Kg,Bench3Kg,Bench4Kg,Best3BenchKg,TotalKg,Event,Equipment,Sex,Tested
1,48,Albina Podsadnik,Альбина Подсадник,1984-04-07,Amateur Open,47.3,37.5,40,-42.5,,40,40,B,Raw,F,Yes
2,48,Svetlana Yakupova,Светлана Якупова,1985-05-10,Amateur Open,45.5,37.5,-40,-42.5,,37.5,37.5,B,Raw,F,Yes
1,52,Guzaliya Sergalina,Гузалия Сергалина,1993-06-21,Amateur Open,50.6,47.5,50,-52.5,,50,50,B,Raw,F,Yes
1,60,Nadezhda Pozdnyakova,Надежда Позднякова,1988-07-14,Amateur Open,58.7,40,45,-50,,45,45,B,Raw,F,Yes
1,67.5,Mariya Romanenkova,Мария Романенкова,1996-04-03,Amateur Juniors 18-23,61.8,65,-72.5,72.5,,72.5,72.5,B,Raw,F,Yes
2,67.5,Valeriya Zemlyanskaya,Валерия Землянская,1996-12-29,Amateur Juniors 18-23,66.8,35,40,42.5,,42.5,42.5,B,Raw,F,Yes
1,67.5,Reana Zakirova,Реана Закирова,1975-01-15,Amateur Masters 40-49,64.7,42.5,47.5,-50,,47.5,47.5,B,Raw,F,Yes
2,67.5,Tatyana Zhavnerovich,Татьяна Жавнерович,1974-05-03,Amateur Masters 40-49,64.5,40,-42.5,-42.5,,40,40,B,Raw,F,Yes
1,75,Sofya Stepanova,Софья Степанова,1988-04-23,Amateur Open,69.8,45,47.5,-52.5,,47.5,47.5,B,Raw,F,Yes
1,82.5,Marina Nikolaeva,Марина Николаева,1985-11-05,Amateur Open,79.3,75,-80,-80,,75,75,B,Raw,F,Yes
2,82.5,Regina Galiakberova,Регина Галиакберова,1986-07-25,Amateur Open,78.1,32.5,35,40,,40,40,B,Raw,F,Yes
1,67.5,Aleksey Yarin,Алексей Ярин,1975-08-30,Amateur Masters 40-49,65.7,100,105,-110,,105,105,B,Raw,M,Yes
1,67.5,Aleksandr Sokolov,Александр Соколов,1992-01-08,Amateur Open,66.7,155,160,-162.5,,160,160,B,Raw,M,Yes
1,67.5,Aleksandr Eremeev,Александр Еремеев,2000-05-31,Amateur Teen 13-17,63.9,92.5,97.5,102.5,,102.5,102.5,B,Raw,M,Yes
2,67.5,Kirill Korkin,Кирилл Коркин,2001-10-23,Amateur Teen 13-17,63.7,-67.5,67.5,-70,,67.5,67.5,B,Raw,M,Yes
1,75,Dmitriy Romanov,Дмитрий Романов,1995-07-17,Amateur Juniors 18-23,74.9,125,130,-132.5,,130,130,B,Raw,M,Yes
2,75,Artyom Kutsamanov,Артём Куцаманов,1994-10-11,Amateur Juniors 18-23,73.7,120,-130,,,120,120,B,Raw,M,Yes
1,75,Sergey Zagray,Сергей Заграй,1985-08-15,Amateur Open,68.2,150,157.5,162.5,,162.5,162.5,B,Raw,M,Yes
2,75,Azamat Baykanov,Азамат Байканов,1990-12-11,Amateur Open,73.7,130,137.5,142.5,,142.5,142.5,B,Raw,M,Yes
3,75,Damir Khusainov,Дамир Хусаинов,1978-12-10,Amateur Open,72.6,-130,-130,130,,130,130,B,Raw,M,Yes
4,75,Vladimir Kharlamov,Владимир Харламов,1992-12-27,Amateur Open,74.7,120,125,130,,130,130,B,Raw,M,Yes
5,75,Evgeniy Fedorov,Евгений Федоров,1981-02-17,Amateur Open,74.5,105,110,115,,115,115,B,Raw,M,Yes
1,82.5,Aleksey Nozdrin,Алексей Ноздрин,1994-05-26,Amateur Juniors 18-23,79.3,120,125,-130,,125,125,B,Raw,M,Yes
1,82.5,Vasiliy Guskov,Василий Гуськов,1989-12-15,Amateur Open,80.6,165,172.5,175,,175,175,B,Raw,M,Yes
2,82.5,Sergey Platov,Сергей Платов,1984-06-04,Amateur Open,82.3,135,145,150,,150,150,B,Raw,M,Yes
3,82.5,Alesandr Lisunov,Алесандр Лисунов,1981-07-13,Amateur Open,78.3,125,130,135,,135,135,B,Raw,M,Yes
4,82.5,Nikolay Taranenko,Николай Тараненко,1982-11-24,Amateur Open,80.5,-130,130,-135,,130,130,B,Raw,M,Yes
5,82.5,Aleksandr Grudinin,Александр Грудинин,1987-07-17,Amateur Open,81.7,105,112.5,117.5,122.5,117.5,117.5,B,Raw,M,Yes
1,90,Sergey Seregin,Сергей Серегин,1970-03-14,Amateur Masters 40-49,86.3,145,147.5,-150,,147.5,147.5,B,Raw,M,Yes
2,90,Anatoliy Tsupriyanchik,Анатолий Цуприянчик,1976-01-18,Amateur Masters 40-49,88.7,-140,140,-155,,140,140,B,Raw,M,Yes
1,90,Marat Mulloyarov,Марат Муллояров,1984-10-26,Amateur Open,83,145,155,-160,,155,155,B,Raw,M,Yes
2,90,Maksim Petrov,Максим Петров,1983-07-05,Amateur Open,90,145,150,155,,155,155,B,Raw,M,Yes
3,90,Andrey Smagin,Андрей Смагин,1987-04-10,Amateur Open,87.4,150,-155,-155,,150,150,B,Raw,M,Yes
4,90,Aleksandr Shvedchikov,Александр Шведчиков,1981-11-05,Amateur Open,87.3,135,140,-145,,140,140,B,Raw,M,Yes
5,90,Nikolay Kovalenko,Николай Коваленко,1988-12-05,Amateur Open,87.3,125,135,140,,140,140,B,Raw,M,Yes
1,100,Nikolay Zalevskiy,Николай Залевский,1993-11-24,Amateur Juniors 18-23,97.9,162.5,170,-172.5,,170,170,B,Raw,M,Yes
1,100,Dmitriy Kuzeev,Дмитрий Кузеев,1975-12-26,Amateur Masters 40-49,99.2,180,190,,,190,190,B,Raw,M,Yes
2,100,Vadim Zakirov,Вадим Закиров,1975-05-12,Amateur Masters 40-49,95.6,105,-110,112.5,,112.5,112.5,B,Raw,M,Yes
1,100,Yuriy Emelkin,Юрий Емелькин,1962-10-23,Amateur Masters 50-59,96.5,120,125,130,,130,130,B,Raw,M,Yes
1,100,Dmitriy Kuzeev,Дмитрий Кузеев,1975-12-26,Amateur Open,99.2,180,190,,,190,190,B,Raw,M,Yes
2,100,Anton Chayka,Антон Чайка,1984-03-14,Amateur Open,94.2,105,110,120,,120,120,B,Raw,M,Yes
1,110,Evgeniy Bukin,Евгений Букин,,Amateur Juniors 18-23,104.3,160,170,-175,,170,170,B,Raw,M,Yes
2,110,Ilya Valivakh,Илья Валивах,1995-06-01,Amateur Juniors 18-23,100.9,160,-165,165,,165,165,B,Raw,M,Yes
1,110,Aleksandr Tabachnikov,Александр Табачников,1984-06-18,Amateur Open,102.2,180,-185,-185,,180,180,B,Raw,M,Yes
2,110,Anatoliy Ivanov,Анатолий Иванов,1984-08-10,Amateur Open,107.1,160,-167.5,167.5,,167.5,167.5,B,Raw,M,Yes
3,110,Vitaliy Gorokhov,Виталий Горохов,1988-02-05,Amateur Open,108.1,-150,152.5,155,,155,155,B,Raw,M,Yes
4,110,Konstantin Sokolov,Константин Соколов,1984-06-08,Amateur Open,109.3,-140,145,155,,155,155,B,Raw,M,Yes
1,125,Nikita Karamalak,Никита Карамалак,1994-03-10,Amateur Juniors 18-23,120.2,177.5,185,-190,,185,185,B,Raw,M,Yes
1,125,Nikita Karamalak,Никита Карамалак,1994-03-10,Amateur Open,120.2,177.5,185,-190,,185,185,B,Raw,M,Yes
2,125,Sergey Panov,Сергей Панов,1988-12-03,Amateur Open,112.8,150,160,162.5,,162.5,162.5,B,Raw,M,Yes
1,140,Ivan Tsyplenkov,Иван Цыпленков,1985-09-20,Amateur Open,128.9,180,187.5,-192.5,,187.5,187.5,B,Raw,M,Yes
1,56,Elena Prikhodko,Елена Приходько,,Pro Teen 13-17,56,25,32.5,40,,40,40,B,Raw,F,No
1,60,Anzhella Isaeva,Анжелла Исаева,1996-04-26,Pro Juniors 18-23,57.7,50,55,-60,,55,55,B,Raw,F,No
1,75,Elena Vadyunina,Елена Вадюнина,1968-05-16,Pro Open,72.2,85,92.5,100,,100,100,B,Raw,F,No
1,75,Elena Vadyunina,Елена Вадюнина,1968-05-17,Pro Masters 40-49,72.2,85,92.5,100,,100,100,B,Raw,F,No
1,82.5,Elza Nasyrova,Эльза Насырова,1980-09-17,Pro Open,81,92.5,97.5,102.5,,102.5,102.5,B,Raw,F,No
1,90,Svetlana Machekhina,Светлана Мачехина,1965-05-10,Pro Open,84,37.5,42.5,-45,,42.5,42.5,B,Raw,F,No
1,90,Svetlana Machekhina,Светлана Мачехина,1965-05-10,Pro Masters 50-59,84,37.5,42.5,-45,,42.5,42.5,B,Raw,F,No
1,44,Artem Paley,Артем Палей,2006-04-11,Pro Teen 13-17,28,32.5,37.5,40,,40,40,B,Raw,M,No
2,44,Vadim Tsetsulin,Вадим Цецулин,2007-12-22,Pro Teen 13-17,27.3,20,22.5,25,,25,25,B,Raw,M,No
1,48,Kirill Repev,Кирилл Репьев,2004-01-30,Pro Teen 13-17,47,37.5,42.5,-45,,42.5,42.5,B,Raw,M,No
1,56,Nikita Kuzmichev #2,Никита Кузьмичев,2003-10-11,Pro Teen 13-17,52.7,42.5,47.5,-50,,47.5,47.5,B,Raw,M,No
1,60,Ivan Kitaev,Иван Китаев,2001-03-19,Pro Teen 13-17,60,55,60,65,,65,65,B,Raw,M,No
2,60,Artyom Shishkov,Артём Шишков,2002-01-31,Pro Teen 13-17,58.9,55,57.5,62.5,,62.5,62.5,B,Raw,M,No
3,60,Andrey Mukhamadeev,Андрей Мухамадеев,2002-08-22,Pro Teen 13-17,59.3,50,55,-60,,55,55,B,Raw,M,No
1,67.5,Pavel Ryabtsev,Павел Рябцев,1998-04-20,Pro Juniors 18-23,65.4,102.5,105,107.5,,107.5,107.5,B,Raw,M,No
2,67.5,Rodion Pyatovskiy,Родион Пятовский,1998-09-22,Pro Juniors 18-23,64.6,75,-80,-80,,75,75,B,Raw,M,No
1,67.5,Mingaley Zagirov,Мингалей Загиров,1948-08-07,Pro Masters 60-69,64.2,60,70,-72.5,,70,70,B,Raw,M,No
1,67.5,Aleksandr Bigildin,Александр Бигильдин,2000-07-22,Pro Teen 13-17,64.5,80,85,87.5,,87.5,87.5,B,Raw,M,No
2,67.5,Mikhail Toropynin,Михаил Торопынин,2001-08-09,Pro Teen 13-17,67.5,72.5,77.5,82.5,,82.5,82.5,B,Raw,M,No
3,67.5,Maksim Seregin,Максим Серегин,2000-02-06,Pro Teen 13-17,65.9,72.5,77.5,80,,80,80,B,Raw,M,No
4,67.5,Andrey Anin,Андрей Анин,2001-08-25,Pro Teen 13-17,65.5,65,70,-75,,70,70,B,Raw,M,No
1,75,Daniil Vadyunin,Даниил Вадюнин,2001-01-27,Pro Teen 13-17,75,95,100,-105,,100,100,B,Raw,M,No
2,75,Georgiy Kamardin,Георгий Камардин,2003-05-27,Pro Teen 13-17,68.8,65,70,72.5,,72.5,72.5,B,Raw,M,No
1,82.5,Viktor Buss,Виктор Бусс,1998-08-06,Pro Juniors 18-23,79,80,90,100,,100,100,B,Raw,M,No
1,82.5,Dmitriy Kayryak,Дмитрий Кайряк,2001-08-29,Pro Teen 13-17,78.6,70,80,85,,85,85,B,Raw,M,No
2,82.5,Mikhail Leshchenko,Михаил Лещенко,2001-11-26,Pro Teen 13-17,82,60,70,-75,,70,70,B,Raw,M,No
1,90,Ildus Nazipov,Ильдус Назипов,1968-09-10,Pro Masters 40-49,88.5,155,162.5,-167.5,,162.5,162.5,B,Raw,M,No
1,90,Anatoliy Sychev,Анатолий Сычев,1944-06-08,Pro Masters 70-79,85.8,67.5,72.5,-75,,72.5,72.5,B,Raw,M,No
2,90,Konstantin Glukhov,Константин Глухов,1976-05-19,Pro Masters 40-49,88.6,150,157.5,-170,,157.5,157.5,B,Raw,M,No
1,90,Viktor Klyushnikov,Виктор Клюшников,,Pro Open,88.3,175,182.5,185,,185,185,B,Raw,M,No
2,90,Ildus Nazipov,Ильдус Назипов,1968-09-11,Pro Open,88.5,155,162.5,-167.5,,162.5,162.5,B,Raw,M,No
1,90,Vladislav Abramkin,Владислав Абрамкин,2002-01-16,Pro Teen 13-17,86.4,-70,75,77.5,,77.5,77.5,B,Raw,M,No
1,100,Vladimir Baklanov,Владимир Бакланов,1987-01-23,Pro Open,99.5,205,210,-215,,210,210,B,Raw,M,No
1,100,Evgeniy Sibirchikov,Евгений Сибирчиков,2002-01-01,Pro Teen 13-17,96.8,60,-65,65,,65,65,B,Raw,M,No
1,110,Aleksandr Galakhov,Александр Галахов,1971-05-21,Pro Masters 40-49,107,190,200,205,,205,205,B,Raw,M,No
1,110,Mikhail Strizhov,Михаил Стрижов,1964-09-22,Pro Masters 50-59,109.9,175,185,195,200,195,195,B,Raw,M,No
1,110,Aleksandr Galakhov,Александр Галахов,1971-05-21,Pro Open,107,190,200,205,,205,205,B,Raw,M,No
2,110,Leonid Khramov,Леонид Храмов,1987-08-03,Pro Open,107.2,200,205,-210,,205,205,B,Raw,M,No
3,110,Mikhail Strizhov,Михаил Стрижов,1964-09-22,Pro Open,109.9,175,185,195,200,195,195,B,Raw,M,No
1,125,Dmitriy Bal,Дмитрий Баль,1974-11-09,Pro Masters 40-49,119.4,200,207.5,212.5,,212.5,212.5,B,Raw,M,No
1,125,Rinat Kabirov,Ринат Кабиров,1979-11-30,Pro Open,125,210,220,-230,,220,220,B,Raw,M,No
2,125,Dmitriy Bal,Дмитрий Баль,1974-11-09,Pro Open,119.4,200,207.5,212.5,,212.5,212.5,B,Raw,M,No
3,125,Anton Saraykin,Антон Сарайкин,1985-11-03,Pro Open,125,200,210,-222.5,,210,210,B,Raw,M,No
1,140,Nikolay Pyshmintsev,Николай Пышминцев,1981-01-04,Pro Open,130,210,222.5,230,,230,230,B,Raw,M,No
1,60,Lyubov Podlipetskaya,Любовь Подлипецкая,1978-09-13,Pro Open,56.9,55,60,65,,65,65,B,Multi-ply,F,No
1,75,Elena Vadyunina,Елена Вадюнина,1968-05-16,Pro Open,72.2,90,-130,130,,130,130,B,Multi-ply,F,No
1,75,Elena Vadyunina,Елена Вадюнина,1968-05-17,Pro Masters 40-49,72.2,90,-130,130,,130,130,B,Multi-ply,F,No
1,67.5,Vadim Sakhautdinov,Вадим Сахаутдинов,1999-12-12,Pro Teen 13-17,62.4,90,-100,-105,,90,90,B,Multi-ply,M,No
1,82.5,Dmitriy Kedin,Дмитрий Кедин,1976-10-20,Pro Masters 40-49,81.3,190,202.5,210,,210,210,B,Multi-ply,M,No
2,82.5,Vyacheslav Chaykovskiy,Вячеслав Чайковский,1970-10-11,Pro Masters 40-49,81.4,160,170,-180,,170,170,B,Multi-ply,M,No
1,82.5,Vyacheslav Chaykovskiy,Вячеслав Чайковский,1970-10-11,Pro Open,81.4,160,170,-180,,170,170,B,Multi-ply,M,No
2,82.5,Evgeniy Melentev,Евгений Мелентьев,1991-10-07,Pro Open,77.6,150,-160,-160,,150,150,B,Multi-ply,M,No
1,90,Denis Mosya,Денис Мося,1975-11-11,Pro Masters 40-49,85.9,145,155,172.5,,172.5,172.5,B,Multi-ply,M,No
1,90,Aleksey Shvetsov,Алексей Швецов,1981-11-23,Pro Open,84.4,250,270,280,,280,280,B,Multi-ply,M,No
1,100,Andrey Fadeev,Андрей Фадеев,1970-06-08,Pro Masters 40-49,95.8,220,225,235,,235,235,B,Multi-ply,M,No
1,100,Pavel Tsetsulin,Павел Цецулин,1978-01-12,Pro Open,99.5,220,230,240,,240,240,B,Multi-ply,M,No
2,100,Andrey Fadeev,Андрей Фадеев,1970-06-08,Pro Open,95.8,220,225,-235,,225,225,B,Multi-ply,M,No
3,100,Yuriy Kornilov,Юрий Корнилов,1981-12-19,Pro Open,98.1,210,-225,-225,,210,210,B,Multi-ply,M,No
1,110,Aleksey Dyachenko,Алексей Дьяченко,1986-11-03,Pro Open,109.9,-225,225,-235,,225,225,B,Multi-ply,M,No
2,110,Sergey Aldoshkin,Сергей Алдошкин,1988-07-02,Pro Open,108.3,205,-220,-220,,205,205,B,Multi-ply,M,No
1,56,Aleksandr Fomichev #1,Александр Фомичев,2002-08-05,Amateur Teen 13-17,54.6,80,-85,-85,,80,80,B,Multi-ply,M,Yes
1,82.5,Ustin Lunev,Устин Лунев,1996-08-12,Amateur Junior 18-23,78.4,-110,110,122.5,130,122.5,122.5,B,Multi-ply,M,Yes
1,90,Sergey Shkurchenko,Сергей Шкурченко,1987-04-06,Amateur Open,86.2,177.5,180,-182.5,,180,180,B,Multi-ply,M,Yes
1,125,Sergey Mubarakshin,Сергей Мубаракшин,1984-02-21,Amateur Open,114,190,200,-210,,200,200,B,Multi-ply,M,Yes
2,125,Evgeniy Nikandrov,Евгений Никандров,1990-11-20,Amateur Open,112.9,180,-190,-195,,180,180,B,Multi-ply,M,Yes
1,140,Pavel Karamalak,Павел Карамалак,1973-06-30,Amateur Open,128.5,220,235,245,,245,245,B,Multi-ply,M,Yes
1,140,Pavel Karamalak,Павел Карамалак,1973-06-30,Amateur Masters 40-49,128.5,220,235,245,,245,245,B,Multi-ply,M,Yes
1,125,Anton Saraykin,Антон Сарайкин,1985-11-03,Pro Open,125,-270,270,-285,,270,270,B,Multi-ply,M,No
1,140,Andrey Yarovoy,Андрей Яровой,1998-09-10,Pro Juniors 18-23,135.2,160,170,180,,180,180,B,Multi-ply,M,No
1,140,Nikolay Pyshmintsev,Николай Пышминцев,1981-01-04,Pro Open,130,-320,335,-350,,335,335,B,Multi-ply,M,No
2,140,Dmitriy Khanykov,Дмитрий Ханыков,1983-12-02,Pro Open,128.3,-310,-310,310,,310,310,B,Multi-ply,M,No
1,140,Aleksey Uchaev,Алексей Учаев,2001-07-18,Pro Teen 13-17,129.4,130,140,-150,,140,140,B,Multi-ply,M,No
